<svg width="24" height="24" viewBox="0 0 24 24" fill="none" xmlns="http://www.w3.org/2000/svg">
<path d="M5 7H19" stroke="#1E1E1E" stroke-width="2" stroke-linecap="round"/>
<path d="M5 12H15" stroke="#1E1E1E" stroke-width="2" stroke-linecap="round"/>
<path d="M5 17H11" stroke="#1E1E1E" stroke-width="2" stroke-linecap="round"/>
</svg>
