<svg xmlns="http://www.w3.org/2000/svg" width="336" height="392" fill="none" viewBox="0 0 336 392">
    <path stroke="#2676FF" d="M335.154 392C308.62 206.1 175.683 54.503 0 .867"/>
    <circle cx="183.5" cy="104.5" r="27" stroke="#8AD554"/>
</svg>
