<svg xmlns="http://www.w3.org/2000/svg" width="1072" height="1080" fill="none" viewBox="0 0 1072 1080">
    <path stroke="#FF56A5" d="M328.388 0C280.664 74.637 253 163.338 253 258.5 253 523.873 468.127 739 733.5 739c132.044 0 251.648-53.262 338.5-139.475" opacity=".3"/>
    <path stroke="#FFCFD0" d="M1072 687.744C1023.97 656.893 966.825 639 905.5 639 735.12 639 597 777.12 597 947.5c0 47.427 10.702 92.36 29.824 132.5" opacity=".3"/>
    <path stroke="#AD4DBF" d="M69 179.5L1072 179.5"/>
    <path stroke="#8AD554" d="M.44 194.789L1072 491"/>
</svg>
