<svg xmlns="http://www.w3.org/2000/svg" width="165" height="162" fill="none" viewBox="0 0 165 162">
    <g filter="url(#filter0_d)">
        <path fill="#FAFBFF" fill-rule="evenodd" d="M25 3C13.954 3 5 11.954 5 23v103.158c0 11.046 8.954 20 20 20h69.549c-.605-.297-.937-.989-.756-1.664l7.638-28.503c1.143-4.268 5.53-6.801 9.798-5.657l22.192 5.946V23c0-11.046-8.954-20-20-20H25z" clip-rule="evenodd"/>
    </g>
    <g filter="url(#filter1_d)">
        <path fill="#F3F6FF" d="M103.536 119.149l-7.637 28.503c-.206.767.25 1.556 1.017 1.762l17.37 4.654c14.684 3.935 25.815-11.332 29.821-19.972.174-.375.308-.761.415-1.161l.701-2.616c1.144-4.268-1.389-8.655-5.656-9.798l-26.233-7.029c-4.268-1.144-8.654 1.389-9.798 5.657z"/>
    </g>
    <rect width="82.105" height="14.737" x="23.306" y="17.737" fill="#3C55B3" opacity=".2" rx="7.368"/>
    <rect width="66.316" height="15.79" x="23.306" y="40.895" fill="#3C55B3" opacity=".2" rx="7.895"/>
    <rect width="78.96" height="15.163" x="22.895" y="65.105" fill="#3C55B3" opacity=".2" rx="7.581"/>
    <rect width="96.984" height="15.163" x="22.895" y="88.689" fill="#3C55B3" opacity=".2" rx="7.581"/>
    <path fill="#3C55B3" d="M113.973 100.219c-13.117 0-23.75-10.575-23.75-23.622 0-13.048 10.633-23.622 23.75-23.622 13.118 0 23.748 10.574 23.748 23.622 0 13.047-10.63 23.622-23.748 23.622zm50.271 18.671l-2.15-2.136v-.001l-.607-.604-.006.004-20.485-20.072c3.947-5.498 6.294-12.211 6.294-19.484C147.29 58.044 132.169 43 113.513 43c-18.654 0-33.776 15.044-33.776 33.597 0 18.555 15.122 33.595 33.776 33.595 6.913 0 13.336-2.071 18.688-5.617l21.078 20.648 2.3 2.287c1.471 1.467 4.608.725 7-1.655 2.395-2.381 3.136-5.5 1.665-6.965z"/>
    <defs>
        <filter id="filter0_d" width="138.421" height="153.158" x="0" y="0" color-interpolation-filters="sRGB" filterUnits="userSpaceOnUse">
            <feFlood flood-opacity="0" result="BackgroundImageFix"/>
            <feColorMatrix in="SourceAlpha" values="0 0 0 0 0 0 0 0 0 0 0 0 0 0 0 0 0 0 127 0"/>
            <feOffset dy="2"/>
            <feGaussianBlur stdDeviation="2.5"/>
            <feColorMatrix values="0 0 0 0 0.254167 0 0 0 0 0.254167 0 0 0 0 0.254167 0 0 0 0.15 0"/>
            <feBlend in2="BackgroundImageFix" result="effect1_dropShadow"/>
            <feBlend in="SourceGraphic" in2="effect1_dropShadow" result="shape"/>
        </filter>
        <filter id="filter1_d" width="59.649" height="51.487" x="90.849" y="110.217" color-interpolation-filters="sRGB" filterUnits="userSpaceOnUse">
            <feFlood flood-opacity="0" result="BackgroundImageFix"/>
            <feColorMatrix in="SourceAlpha" values="0 0 0 0 0 0 0 0 0 0 0 0 0 0 0 0 0 0 127 0"/>
            <feOffset dy="2"/>
            <feGaussianBlur stdDeviation="2.5"/>
            <feColorMatrix values="0 0 0 0 0.254167 0 0 0 0 0.254167 0 0 0 0 0.254167 0 0 0 0.15 0"/>
            <feBlend in2="BackgroundImageFix" result="effect1_dropShadow"/>
            <feBlend in="SourceGraphic" in2="effect1_dropShadow" result="shape"/>
        </filter>
    </defs>
</svg>
