<svg xmlns="http://www.w3.org/2000/svg" width="20" height="20" fill="none" viewBox="0 0 20 20">
    <path fill="#3C55B3" d="M6.667 10.833c.46 0 .833-.373.833-.833 0-.46-.373-.833-.833-.833-.46 0-.834.373-.834.833 0 .46.374.833.834.833zM10.833 10c0 .46-.373.833-.833.833-.46 0-.833-.373-.833-.833 0-.46.373-.833.833-.833.46 0 .833.373.833.833zM13.333 10.833c.46 0 .834-.373.834-.833 0-.46-.373-.833-.834-.833-.46 0-.833.373-.833.833 0 .46.373.833.833.833zM7.5 13.333c0 .46-.373.834-.833.834-.46 0-.834-.373-.834-.834 0-.46.374-.833.834-.833.46 0 .833.373.833.833zM10 14.167c.46 0 .833-.373.833-.834 0-.46-.373-.833-.833-.833-.46 0-.833.373-.833.833 0 .46.373.834.833.834z"/>
    <path fill="#3C55B3" fill-rule="evenodd" d="M6.667 2.5c0-.46-.373-.833-.834-.833-.46 0-.833.373-.833.833H3.333c-.92 0-1.666.746-1.666 1.667v11.666c0 .92.746 1.667 1.666 1.667h13.334c.92 0 1.666-.746 1.666-1.667V4.167c0-.92-.746-1.667-1.666-1.667H15c0-.46-.373-.833-.833-.833-.46 0-.834.373-.834.833H6.667zM3.333 5.833V4.167h13.334v1.666H3.333zm0 1.667v8.333h8.477l4.857-4.857V7.5H3.333zm13.334 5.833l-2.5 2.5h2.5v-2.5z" clip-rule="evenodd"/>
</svg>
