<svg xmlns="http://www.w3.org/2000/svg" width="80" height="80" fill="none" viewBox="0 0 80 80">
    <path fill="#3C55B3" d="M70.625 7.5H9.375C4.205 7.5 0 11.706 0 16.875v7.734l34.405 25.59c1.673 1.245 3.634 1.867 5.595 1.867 1.96 0 3.922-.622 5.595-1.867L80 24.61v-7.734c0-5.17-4.206-9.375-9.375-9.375zm3.125 13.968L41.865 45.184c-1.116.83-2.614.83-3.73 0L6.25 21.468v-4.593c0-1.723 1.402-3.125 3.125-3.125h61.25c1.723 0 3.125 1.402 3.125 3.125v4.593zm0 15.579L80 32.398v30.727c0 5.17-4.206 9.375-9.375 9.375H9.375C4.205 72.5 0 68.294 0 63.125V32.398l6.25 4.649v26.078c0 1.723 1.402 3.125 3.125 3.125h61.25c1.723 0 3.125-1.402 3.125-3.125V37.047z"/>
</svg>
