<svg xmlns="http://www.w3.org/2000/svg" width="22" height="22" fill="none" viewBox="0 0 22 22">
    <path fill="#FAFBFF" d="M0 4c0-2.21 1.79-4 4-4h14c2.21 0 4 1.79 4 4v14c0 2.21-1.79 4-4 4H4c-2.21 0-4-1.79-4-4V4z"/>
    <path fill="#198639" d="M13.75 14.552l-3.557-3.556 3.557-3.557c.358-.358.358-.935 0-1.293-.171-.171-.404-.268-.646-.268-.243 0-.475.097-.646.268L8.25 10.354c-.357.357-.357.935 0 1.292l4.208 4.208c.357.357.935.357 1.292 0 .348-.358.358-.944 0-1.302z" opacity=".54"/>
</svg>
