<svg xmlns="http://www.w3.org/2000/svg" width="52" height="52" fill="none" viewBox="0 0 52 52">
    <path fill="#FAFBFF" d="M0 4c0-2.21 1.79-4 4-4h44c2.21 0 4 1.79 4 4v44c0 2.21-1.79 4-4 4H4c-2.21 0-4-1.79-4-4V4z"/>
    <path fill="#000" fill-opacity=".54" d="M32.5 34.396l-8.407-8.407 8.407-8.407c.845-.845.845-2.21 0-3.055-.405-.405-.954-.633-1.527-.633s-1.123.228-1.528.633L19.5 24.472c-.845.845-.845 2.21 0 3.055l9.945 9.945c.845.845 2.21.845 3.055 0 .823-.845.845-2.231 0-3.076z"/>
</svg>
