<svg xmlns="http://www.w3.org/2000/svg" width="33" height="31" fill="none" viewBox="0 0 33 31">
    <path fill="url(#paint0_linear)" d="M23.52 3H4.48C2.006 3 0 5.006 0 7.48v19.04C0 28.994 2.006 31 4.48 31h19.04c2.474 0 4.48-2.006 4.48-4.48V7.48C28 5.006 25.994 3 23.52 3z"/>
    <g filter="url(#filter0_d)">
        <path fill="url(#paint1_linear)" fill-rule="evenodd" d="M28 22.752V7.48C28 5.006 25.994 3 23.52 3H8.271C18.415 4.573 26.43 12.597 28 22.752z" clip-rule="evenodd"/>
    </g>
    <path fill="#fff" d="M21.442 6.733v1.832c0 .545-.064.987-.19 1.325-.126.329-.247.606-.364.832l-7.37 15.107c-.204.395-.496.733-.874 1.015-.37.282-.865.423-1.486.423H7.866l7.574-14.7c.224-.394.447-.75.67-1.07.233-.33.49-.64.772-.93H7.545c-.136 0-.267-.024-.393-.07-.116-.057-.223-.128-.32-.212-.088-.094-.16-.198-.219-.31-.058-.123-.087-.245-.087-.367V6.733h14.916z"/>
    <defs>
        <linearGradient id="paint0_linear" x1="1.4" x2="25.433" y1="28.433" y2="4.867" gradientUnits="userSpaceOnUse">
            <stop offset=".026" stop-color="#6A84E7"/>
            <stop offset=".352" stop-color="#4F69CB"/>
            <stop offset=".618" stop-color="#3C55B3"/>
            <stop offset=".835" stop-color="#304CB7"/>
            <stop offset=".993" stop-color="#1E3AA3"/>
        </linearGradient>
        <linearGradient id="paint1_linear" x1="25.359" x2="10.12" y1="6.077" y2="23.598" gradientUnits="userSpaceOnUse">
            <stop stop-color="#25AB4C"/>
            <stop offset=".25" stop-color="#279246"/>
            <stop offset=".568" stop-color="#317C47"/>
        </linearGradient>
        <filter id="filter0_d" width="29.729" height="29.752" x="3.271" y="0" color-interpolation-filters="sRGB" filterUnits="userSpaceOnUse">
            <feFlood flood-opacity="0" result="BackgroundImageFix"/>
            <feColorMatrix in="SourceAlpha" values="0 0 0 0 0 0 0 0 0 0 0 0 0 0 0 0 0 0 127 0"/>
            <feOffset dy="2"/>
            <feGaussianBlur stdDeviation="2.5"/>
            <feColorMatrix values="0 0 0 0 0.254167 0 0 0 0 0.254167 0 0 0 0 0.254167 0 0 0 0.3 0"/>
            <feBlend in2="BackgroundImageFix" result="effect1_dropShadow"/>
            <feBlend in="SourceGraphic" in2="effect1_dropShadow" result="shape"/>
        </filter>
    </defs>
</svg>
