<svg xmlns="http://www.w3.org/2000/svg" width="112" height="131" fill="none" viewBox="0 0 112 131">
    <path fill="#fff" d="M21.2 2c0-.5.2-1 .6-1.4.8-.8 2-.8 2.7 0C29.9 6 29.9 11.4 30 16.2c.1 4.7.1 8.7 4.4 12.9 4.2 4.2 8.3 4.3 12.9 4.4 4.8.1 10.3.1 15.6 5.5 5.4 5.4 5.4 10.8 5.5 15.6.1 4.7.1 8.7 4.4 12.9 4.2 4.2 8.3 4.3 13 4.4 4.8.1 10.3.1 15.6 5.5 5.4 5.4 5.4 10.8 5.5 15.6.1 4.7.1 8.7 4.4 12.9.8.8.8 2 0 2.7-.8.8-2 .8-2.7 0-5.4-5.4-5.4-10.8-5.5-15.6-.1-4.7-.1-8.7-4.4-12.9-4.2-4.2-8.3-4.3-13-4.4-4.8-.1-10.3-.1-15.6-5.5-5.4-5.4-5.4-10.8-5.5-15.6-.1-4.7-.1-8.7-4.4-12.9-4.2-4.2-8.3-4.3-12.9-4.4-4.8-.1-10.3-.1-15.6-5.5-5.4-5.4-5.4-10.8-5.5-15.6-.1-4.7-.1-8.7-4.4-12.9-.4-.4-.6-.9-.6-1.3z"/>
    <path fill="#fff" d="M10.6 12.5c0-.5.2-1 .6-1.4.8-.8 2-.8 2.7 0 5.4 5.4 5.4 10.8 5.5 15.6.1 4.7.1 8.7 4.4 12.9 4.2 4.2 8.3 4.3 12.9 4.4 4.8.1 10.3.1 15.6 5.5 5.4 5.4 5.4 10.8 5.5 15.6.1 4.7.1 8.7 4.4 12.9 4.2 4.2 8.3 4.3 13 4.4 4.8.1 10.3.1 15.6 5.5 5.4 5.4 5.4 10.8 5.5 15.6.1 4.7.1 8.7 4.4 12.9.8.8.8 2 0 2.7-.8.8-2 .8-2.7 0-5.4-5.4-5.4-10.8-5.5-15.6-.1-4.7-.1-8.7-4.4-12.9-4.2-4.2-8.3-4.3-13-4.4-4.8-.1-10.3-.1-15.6-5.5-5.4-5.4-5.4-10.8-5.5-15.6-.1-4.7-.1-8.7-4.4-12.9-4.2-4.2-8.3-4.3-12.9-4.4-4.8-.1-10.3-.1-15.6-5.5-5.4-5.4-5.4-10.8-5.5-15.6-.1-4.7-.1-8.7-4.4-12.9-.4-.3-.6-.8-.6-1.3z"/>
    <path fill="#fff" d="M0 23.1c0-.5.2-1 .6-1.4.8-.8 2-.8 2.7 0 5.4 5.4 5.4 10.8 5.5 15.6.1 4.7.1 8.7 4.4 12.9 4.2 4.2 8.3 4.3 12.9 4.4 4.8.1 10.3.1 15.6 5.5 5.4 5.4 5.4 10.8 5.5 15.6.1 4.7.1 8.7 4.4 12.9 4.2 4.2 8.3 4.3 13 4.4 4.8.1 10.3.1 15.6 5.5 5.4 5.4 5.4 10.8 5.5 15.6.1 4.7.1 8.7 4.4 12.9.8.8.8 2 0 2.7-.8.8-2 .8-2.7 0-5.4-5.4-5.4-10.8-5.5-15.6-.1-4.7-.1-8.7-4.4-12.9-4.2-4.2-8.3-4.3-13-4.4-4.8-.1-10.3-.1-15.6-5.5-5.4-5.4-5.4-10.8-5.5-15.6-.1-4.7-.1-8.7-4.4-12.9-4.2-4.2-8.3-4.3-12.9-4.4-4.8-.1-10.3-.1-15.6-5.5C5.1 47.5 5.1 42.1 5 37.3c-.1-4.7-.1-8.7-4.4-12.9-.4-.3-.6-.8-.6-1.3z"/>
</svg>
