<?xml version="1.0" encoding="utf-8"?>
<!-- Generator: Adobe Illustrator 16.0.0, SVG Export Plug-In . SVG Version: 6.00 Build 0)  -->
<!DOCTYPE svg PUBLIC "-//W3C//DTD SVG 1.1//EN" "http://www.w3.org/Graphics/SVG/1.1/DTD/svg11.dtd">
<svg version="1.1" id="Layer_1" xmlns="http://www.w3.org/2000/svg" xmlns:xlink="http://www.w3.org/1999/xlink" x="0px" y="0px"
	 width="15px" height="15px" viewBox="0 0 15 15" enable-background="new 0 0 15 15" xml:space="preserve">
<path fill="#818181" d="M13.556,7.499c-0.716,0-1.296,0.581-1.296,1.296c0,0.314,0.114,0.803,0.286,1.211
	c0.164,0.389,0.356,0.664,0.576,0.813v1.863c-0.041,1.141-1.682,1.148-1.728,0V1.885c0-0.953-0.775-1.728-1.728-1.728H7.075
	c-0.952,0-1.727,0.775-1.727,1.728H4.053v0.864H2.682C2.181,1.395,0.193,1.719,0.167,3.18c0.026,1.46,2.016,1.784,2.517,0.432h1.37
	v0.463c-0.914,0.531-1.564,1.466-1.701,2.56h6.857c-0.137-1.093-0.786-2.03-1.7-2.559V1.882H6.214c0-0.476,0.386-0.863,0.863-0.863
	h2.59c0.479,0,0.865,0.387,0.865,0.863V12.68c0,0.955,0.775,1.729,1.728,1.729c0.954,0,1.729-0.773,1.729-1.729v-1.863
	c0.22-0.148,0.41-0.422,0.576-0.811c0.17-0.41,0.286-0.896,0.286-1.211C14.852,8.078,14.271,7.498,13.556,7.499L13.556,7.499z"/>
<path fill="#818181" d="M2.316,11.773h6.911v3.07H2.316V11.773z"/>
<path fill="#818181" d="M2.325,11.82h6.912V7.499H2.325V11.82z"/>
</svg>
