<svg width="24" height="24" viewBox="0 0 24 24" fill="none" xmlns="http://www.w3.org/2000/svg">
<path d="M12 24C18.6274 24 24 18.6274 24 12C24 5.37258 18.6274 0 12 0C5.37258 0 0 5.37258 0 12C0 18.6274 5.37258 24 12 24Z" fill="url(#paint0_linear_3_1174)"/>
<path d="M16.8169 8.72061C16.6737 8.76124 16.5252 8.77981 16.3764 8.77567V8.73032C16.6032 8.54895 17.1797 7.98862 17.2542 7.72628C17.2866 7.61291 17.2542 7.57405 17.2542 7.57081L16.5222 7.8947L15.9068 8.17324C15.6748 7.93602 15.3969 7.7485 15.0901 7.6221C14.7833 7.4957 14.454 7.43307 14.1222 7.43802C12.8461 7.43802 11.8096 8.34166 11.8096 9.45907C11.8077 9.71578 11.8393 9.97165 11.9036 10.2202C11.9036 10.2785 11.9036 10.1619 11.9036 10.2202C10.918 10.1378 9.95989 9.85331 9.08898 9.38457C7.23959 8.41939 7.12623 7.77162 7.12623 7.77162C6.83473 8.07931 6.68575 9.10279 6.98048 9.90603C7.17611 10.2939 7.46421 10.6276 7.81935 10.8777V10.8777C7.61685 10.8766 7.41577 10.8438 7.2234 10.7805C7.07231 10.7438 6.92948 10.679 6.80234 10.5894C6.62097 11.0299 6.98372 11.817 7.61206 12.3838C7.92145 12.6208 8.27007 12.8017 8.64202 12.9182L7.60234 12.9538C7.54081 13.9611 9.71732 14.5732 9.71732 14.5732C9.10005 15.0717 8.33407 15.3498 7.54081 15.3635C7.13819 15.3633 6.73775 15.3044 6.35214 15.1886C7.42684 16.1238 8.81488 16.6188 10.2388 16.5749C14.1254 16.3708 16.3376 13.0121 16.4412 9.73113C16.6534 9.59712 16.8463 9.43475 17.0145 9.24854C17.2608 8.99418 17.4731 8.70894 17.6461 8.39996C17.6461 8.39996 17.0598 8.65259 16.8169 8.72061Z" fill="white"/>
<defs>
<linearGradient id="paint0_linear_3_1174" x1="-2.79292" y1="1.51196" x2="25.7137" y2="21.7205" gradientUnits="userSpaceOnUse">
<stop offset="0.04" stop-color="#43C5F9"/>
<stop offset="0.29" stop-color="#46C6F9"/>
<stop offset="0.5" stop-color="#51CAFA"/>
<stop offset="0.7" stop-color="#62D1FC"/>
<stop offset="0.89" stop-color="#7BDAFE"/>
<stop offset="0.99" stop-color="#8CE0FF"/>
</linearGradient>
</defs>
</svg>
