<svg width="24" height="24" viewBox="0 0 24 24" fill="none" xmlns="http://www.w3.org/2000/svg">
<path d="M11.9983 24C8.81587 23.9991 5.76405 22.7343 3.51403 20.4836C1.264 18.233 -1.23672e-07 15.1808 0 11.9983H0C0.000886936 8.81644 1.26528 5.76514 3.51521 3.51521C5.76514 1.26528 8.81644 0.000886936 11.9983 0V0C15.1808 -1.23672e-07 18.233 1.264 20.4836 3.51403C22.7343 5.76405 23.9991 8.81587 24 11.9983C24 13.5744 23.6896 15.1351 23.0864 16.5912C22.4833 18.0473 21.5992 19.3703 20.4848 20.4848C19.3703 21.5992 18.0473 22.4833 16.5912 23.0864C15.1351 23.6896 13.5744 24 11.9983 24Z" fill="url(#paint0_linear_3_1178)"/>
<path fill-rule="evenodd" clip-rule="evenodd" d="M18.5797 11.667C18.5206 10.0035 17.822 8.42696 16.6296 7.26564C15.4371 6.10431 13.8426 5.44773 12.1781 5.43264C10.5137 5.41755 8.90753 6.0451 7.6942 7.18462C6.48087 8.32413 5.75386 9.88777 5.66459 11.5499C5.66459 11.6436 5.66459 11.7373 5.66459 11.831C5.66381 12.9988 5.98321 14.1444 6.58805 15.1434L5.41699 18.5829L8.99708 17.4453C9.97792 17.9844 11.0819 18.2598 12.201 18.2444C13.3201 18.2291 14.4161 17.9236 15.3818 17.3578C16.3475 16.792 17.1498 15.9853 17.7104 15.0165C18.2709 14.0478 18.5704 12.9502 18.5797 11.831V11.667ZM12.1188 17.2212C11.0567 17.2235 10.0174 16.9128 9.13092 16.3278L7.04309 16.997L7.71227 14.9895C7.04605 14.0713 6.68871 12.9653 6.69177 11.831C6.69177 11.6536 6.69177 11.4964 6.71854 11.3057C6.86055 9.96102 7.49847 8.71754 8.50784 7.81787C9.5172 6.91821 10.8256 6.42692 12.1776 6.43988C13.5297 6.45283 14.8284 6.96911 15.8203 7.88795C16.8123 8.80679 17.4263 10.0623 17.5425 11.4094C17.5425 11.5499 17.5592 11.6871 17.5592 11.831C17.5521 13.2671 16.9751 14.6416 15.9549 15.6523C14.9347 16.6631 13.5549 17.2274 12.1188 17.2212V17.2212Z" fill="white"/>
<path fill-rule="evenodd" clip-rule="evenodd" d="M15.08 13.1259C14.9193 13.0456 14.1431 12.6641 13.9992 12.6139C13.8554 12.5637 13.7449 12.5336 13.6412 12.6909C13.5375 12.8481 13.2297 13.2028 13.1393 13.3065C13.049 13.4103 12.9553 13.4236 12.8048 13.3467C12.3378 13.1613 11.9065 12.8964 11.53 12.5637C11.1836 12.2489 10.8869 11.8834 10.65 11.4797C10.6311 11.4536 10.6179 11.4239 10.6112 11.3924C10.6045 11.3609 10.6044 11.3283 10.6111 11.2968C10.6177 11.2653 10.6308 11.2355 10.6496 11.2094C10.6684 11.1833 10.6925 11.1614 10.7203 11.1451C10.7905 11.0715 10.8775 10.9611 10.9578 10.8707L11.0147 10.7938C11.0523 10.7336 11.0859 10.671 11.1151 10.6064C11.1376 10.5642 11.1494 10.5171 11.1494 10.4692C11.1494 10.4214 11.1376 10.3743 11.1151 10.332C11.0749 10.2517 10.7571 9.47885 10.6232 9.16433C10.4894 8.84982 10.3589 8.90336 10.2652 8.90336C10.1715 8.90336 10.0712 8.90336 9.9641 8.90336C9.88357 8.90563 9.80435 8.92431 9.73128 8.95825C9.65822 8.99219 9.59285 9.04069 9.53917 9.10076C9.36082 9.26954 9.21961 9.47364 9.12456 9.70004C9.0295 9.92645 8.98269 10.1702 8.9871 10.4157C8.99037 10.5969 9.01737 10.7769 9.0674 10.951C9.18475 11.3445 9.36926 11.7146 9.61278 12.0451C9.69308 12.1489 10.7102 13.7883 12.3196 14.4207C13.929 15.0531 13.9323 14.8389 14.2201 14.8122C14.5078 14.7854 15.1603 14.4341 15.2907 14.0627C15.3968 13.8257 15.4317 13.563 15.3911 13.3065C15.3443 13.243 15.2372 13.2028 15.08 13.1259Z" fill="white"/>
<defs>
<linearGradient id="paint0_linear_3_1178" x1="12" y1="0" x2="12" y2="24" gradientUnits="userSpaceOnUse">
<stop stop-color="#57F676"/>
<stop offset="1" stop-color="#1BC83D"/>
</linearGradient>
</defs>
</svg>
