<?xml version="1.0" encoding="utf-8"?>
<!-- Generator: Adobe Illustrator 16.0.0, SVG Export Plug-In . SVG Version: 6.00 Build 0)  -->
<!DOCTYPE svg PUBLIC "-//W3C//DTD SVG 1.1//EN" "http://www.w3.org/Graphics/SVG/1.1/DTD/svg11.dtd">
<svg version="1.1" id="Layer_1" xmlns="http://www.w3.org/2000/svg" xmlns:xlink="http://www.w3.org/1999/xlink" x="0px" y="0px"
	 width="15px" height="15px" viewBox="0 0 15 15" enable-background="new 0 0 15 15" xml:space="preserve">
<path fill="#818181" d="M11.46,3.712c0.123-0.226,0.038-0.509-0.189-0.632l-0.407-0.224l1.128-2.076
	c0.122-0.226,0.038-0.51-0.187-0.632c-0.226-0.124-0.51-0.04-0.632,0.187L10.042,2.41L9.634,2.188
	C9.407,2.065,9.125,2.149,9.002,2.375L8.777,2.784l2.46,1.338L11.46,3.712z M7.186,12.538L7.186,12.538l0.891-1.639l-1.242-0.677
	C6.608,10.1,6.525,9.816,6.648,9.588c0.124-0.224,0.407-0.309,0.634-0.185l1.241,0.676l0.444-0.818L7.726,8.585
	C7.501,8.462,7.416,8.18,7.539,7.953c0.125-0.227,0.408-0.311,0.633-0.187l1.241,0.675l0.449-0.818L8.619,6.947
	C8.395,6.823,8.309,6.54,8.433,6.313c0.122-0.226,0.407-0.31,0.633-0.187l1.241,0.677l0.67-1.23
	c0.122-0.226,0.038-0.509-0.188-0.632L8.331,3.604C8.104,3.48,7.821,3.563,7.699,3.79l-3.792,6.963
	c-0.227-0.121-0.509-0.037-0.632,0.188c-0.123,0.227-0.039,0.511,0.187,0.634l1.228,0.669l-0.46,0.846l-0.816-0.443
	c-0.226-0.125-0.511-0.041-0.633,0.185c-0.123,0.227-0.04,0.51,0.187,0.633l2.455,1.339c0.226,0.123,0.51,0.038,0.633-0.188
	c0.123-0.227,0.039-0.51-0.187-0.633l-0.819-0.447l0.46-0.846l1.231,0.669c0.226,0.125,0.51,0.041,0.632-0.186
	C7.495,12.943,7.412,12.661,7.186,12.538z"/>
</svg>
