<svg width="75" height="60" viewBox="0 0 75 60" fill="none" xmlns="http://www.w3.org/2000/svg">
<path d="M36.5376 11.3174H29.7715V32.3116H36.5376V11.3174Z" fill="white"/>
<path d="M4.84848 45.648C5.4102 45.648 5.90298 45.7578 6.32683 45.9774C6.75577 46.197 7.08515 46.511 7.31494 46.9195C7.54984 47.3229 7.66729 47.7927 7.66729 48.3289C7.66729 48.8651 7.54984 49.3349 7.31494 49.7383C7.08515 50.1366 6.75577 50.4456 6.32683 50.6652C5.90298 50.8847 5.4102 50.9945 4.84848 50.9945H2.97949V45.648H4.84848ZM4.81018 50.083C5.3719 50.083 5.80596 49.9298 6.11235 49.6234C6.41874 49.317 6.57194 48.8855 6.57194 48.3289C6.57194 47.7723 6.41874 47.3383 6.11235 47.0268C5.80596 46.7102 5.3719 46.5519 4.81018 46.5519H4.05186V50.083H4.81018Z" fill="white"/>
<path d="M9.01386 46.2455C8.82492 46.2455 8.66662 46.1867 8.53895 46.0693C8.4164 45.9467 8.35512 45.7961 8.35512 45.6174C8.35512 45.4386 8.4164 45.2905 8.53895 45.1731C8.66662 45.0505 8.82492 44.9893 9.01386 44.9893C9.2028 44.9893 9.35855 45.0505 9.48111 45.1731C9.60877 45.2905 9.6726 45.4386 9.6726 45.6174C9.6726 45.7961 9.60877 45.9467 9.48111 46.0693C9.35855 46.1867 9.2028 46.2455 9.01386 46.2455ZM9.54239 46.751V50.9945H8.47001V46.751H9.54239Z" fill="white"/>
<path d="M12.2641 46.6821C12.5807 46.6821 12.859 46.7459 13.099 46.8736C13.339 46.9961 13.5279 47.157 13.6658 47.3561V46.751H14.7458V51.0252C14.7458 51.4184 14.6667 51.7682 14.5084 52.0746C14.3501 52.3861 14.1126 52.6312 13.796 52.8099C13.4794 52.9937 13.0964 53.0857 12.6471 53.0857C12.0445 53.0857 11.5492 52.9452 11.1611 52.6644C10.7781 52.3835 10.561 52.0005 10.51 51.5154H11.5747C11.6309 51.7095 11.7509 51.8627 11.9347 51.975C12.1236 52.0924 12.3509 52.1512 12.6164 52.1512C12.9279 52.1512 13.1807 52.0567 13.3747 51.8678C13.5688 51.6839 13.6658 51.4031 13.6658 51.0252V50.3664C13.5279 50.5656 13.3364 50.7316 13.0913 50.8643C12.8513 50.9971 12.5756 51.0635 12.2641 51.0635C11.9066 51.0635 11.5798 50.9716 11.2836 50.7877C10.9874 50.6039 10.7525 50.346 10.5789 50.0141C10.4104 49.6771 10.3261 49.2915 10.3261 48.8575C10.3261 48.4285 10.4104 48.0481 10.5789 47.7161C10.7525 47.3842 10.9849 47.1289 11.276 46.9502C11.5721 46.7714 11.9015 46.6821 12.2641 46.6821ZM13.6658 48.8728C13.6658 48.6123 13.6147 48.3902 13.5126 48.2064C13.4105 48.0174 13.2726 47.8744 13.099 47.7774C12.9254 47.6753 12.739 47.6242 12.5398 47.6242C12.3407 47.6242 12.1568 47.6727 11.9883 47.7698C11.8198 47.8668 11.6819 48.0098 11.5747 48.1987C11.4726 48.3825 11.4215 48.6021 11.4215 48.8575C11.4215 49.1128 11.4726 49.3375 11.5747 49.5315C11.6819 49.7205 11.8198 49.866 11.9883 49.9681C12.1619 50.0703 12.3458 50.1213 12.5398 50.1213C12.739 50.1213 12.9254 50.0728 13.099 49.9758C13.2726 49.8737 13.4105 49.7307 13.5126 49.5468C13.6147 49.3579 13.6658 49.1332 13.6658 48.8728Z" fill="white"/>
<path d="M16.3371 46.2455C16.1481 46.2455 15.9898 46.1867 15.8621 46.0693C15.7396 45.9467 15.6783 45.7961 15.6783 45.6174C15.6783 45.4386 15.7396 45.2905 15.8621 45.1731C15.9898 45.0505 16.1481 44.9893 16.3371 44.9893C16.526 44.9893 16.6817 45.0505 16.8043 45.1731C16.932 45.2905 16.9958 45.4386 16.9958 45.6174C16.9958 45.7961 16.932 45.9467 16.8043 46.0693C16.6817 46.1867 16.526 46.2455 16.3371 46.2455ZM16.8656 46.751V50.9945H15.7932V46.751H16.8656Z" fill="white"/>
<path d="M19.1736 47.6319V49.6847C19.1736 49.8277 19.2068 49.9324 19.2732 49.9988C19.3447 50.06 19.4621 50.0907 19.6256 50.0907H20.1234V50.9945H19.4494C18.5455 50.9945 18.0936 50.5554 18.0936 49.6771V47.6319H17.5881V46.751H18.0936V45.7016H19.1736V46.751H20.1234V47.6319H19.1736Z" fill="white"/>
<path d="M20.619 48.8575C20.619 48.4285 20.7033 48.0481 20.8718 47.7161C21.0454 47.3842 21.2777 47.1289 21.5688 46.9502C21.865 46.7714 22.1944 46.6821 22.5569 46.6821C22.8735 46.6821 23.1493 46.7459 23.3842 46.8736C23.6242 47.0012 23.8157 47.1621 23.9587 47.3561V46.751H25.0387V50.9945H23.9587V50.3741C23.8208 50.5733 23.6293 50.7392 23.3842 50.872C23.1442 50.9996 22.8659 51.0635 22.5493 51.0635C22.1918 51.0635 21.865 50.9716 21.5688 50.7877C21.2777 50.6039 21.0454 50.346 20.8718 50.0141C20.7033 49.6771 20.619 49.2915 20.619 48.8575ZM23.9587 48.8728C23.9587 48.6123 23.9076 48.3902 23.8055 48.2064C23.7033 48.0174 23.5655 47.8744 23.3918 47.7774C23.2182 47.6753 23.0318 47.6242 22.8327 47.6242C22.6335 47.6242 22.4497 47.6727 22.2812 47.7698C22.1127 47.8668 21.9748 48.0098 21.8675 48.1987C21.7654 48.3825 21.7144 48.6021 21.7144 48.8575C21.7144 49.1128 21.7654 49.3375 21.8675 49.5315C21.9748 49.7205 22.1127 49.866 22.2812 49.9681C22.4548 50.0703 22.6386 50.1213 22.8327 50.1213C23.0318 50.1213 23.2182 50.0728 23.3918 49.9758C23.5655 49.8737 23.7033 49.7307 23.8055 49.5468C23.9076 49.3579 23.9587 49.1332 23.9587 48.8728Z" fill="white"/>
<path d="M27.1584 45.3263V50.9945H26.0861V45.3263H27.1584Z" fill="white"/>
<path d="M4.05186 54.5845V59.9311H2.97949V54.5845H4.05186Z" fill="white"/>
<path d="M7.46293 55.6263C7.96847 55.6263 8.377 55.7871 8.6885 56.1088C8.99999 56.4254 9.15574 56.8697 9.15574 57.4416V59.9311H8.08337V57.5872C8.08337 57.2501 7.99911 56.9923 7.8306 56.8135C7.66208 56.6297 7.43229 56.5378 7.14122 56.5378C6.84504 56.5378 6.61014 56.6297 6.43651 56.8135C6.268 56.9923 6.18374 57.2501 6.18374 57.5872V59.9311H5.11137V55.6875H6.18374V56.2161C6.32672 56.0322 6.50801 55.8892 6.72759 55.7871C6.95227 55.6799 7.19739 55.6263 7.46293 55.6263Z" fill="white"/>
<path d="M12.5271 55.6263C13.0326 55.6263 13.4411 55.7871 13.7526 56.1088C14.0641 56.4254 14.2199 56.8697 14.2199 57.4416V59.9311H13.1475V57.5872C13.1475 57.2501 13.0633 56.9923 12.8947 56.8135C12.7262 56.6297 12.4964 56.5378 12.2054 56.5378C11.9092 56.5378 11.6743 56.6297 11.5007 56.8135C11.3321 56.9923 11.2479 57.2501 11.2479 57.5872V59.9311H10.1755V55.6875H11.2479V56.2161C11.3909 56.0322 11.5721 55.8892 11.7917 55.7871C12.0164 55.6799 12.2615 55.6263 12.5271 55.6263Z" fill="white"/>
<path d="M17.124 60C16.7154 60 16.3478 59.9107 16.021 59.7319C15.6941 59.5481 15.4363 59.2902 15.2473 58.9583C15.0635 58.6264 14.9716 58.2434 14.9716 57.8093C14.9716 57.3753 15.066 56.9923 15.255 56.6603C15.449 56.3284 15.712 56.0731 16.0439 55.8944C16.3759 55.7105 16.7461 55.6186 17.1546 55.6186C17.5631 55.6186 17.9334 55.7105 18.2653 55.8944C18.5972 56.0731 18.8576 56.3284 19.0466 56.6603C19.2406 56.9923 19.3377 57.3753 19.3377 57.8093C19.3377 58.2434 19.2381 58.6264 19.0389 58.9583C18.8449 59.2902 18.5793 59.5481 18.2423 59.7319C17.9104 59.9107 17.5376 60 17.124 60ZM17.124 59.0655C17.318 59.0655 17.4993 59.0196 17.6678 58.9276C17.8414 58.8306 17.9793 58.6876 18.0814 58.4987C18.1836 58.3098 18.2346 58.08 18.2346 57.8093C18.2346 57.4059 18.1274 57.0969 17.9129 56.8825C17.7036 56.6629 17.4457 56.5531 17.1393 56.5531C16.8329 56.5531 16.575 56.6629 16.3656 56.8825C16.1614 57.0969 16.0593 57.4059 16.0593 57.8093C16.0593 58.2127 16.1588 58.5242 16.358 58.7438C16.5622 58.9583 16.8176 59.0655 17.124 59.0655Z" fill="white"/>
<path d="M21.8937 58.943L22.9661 55.6875H24.1074L22.5371 59.9311H21.2349L19.6723 55.6875H20.8213L21.8937 58.943Z" fill="white"/>
<path d="M24.4339 57.794C24.4339 57.365 24.5182 56.9846 24.6867 56.6527C24.8603 56.3208 25.0927 56.0654 25.3837 55.8867C25.6799 55.708 26.0093 55.6186 26.3719 55.6186C26.6885 55.6186 26.9642 55.6824 27.1991 55.8101C27.4391 55.9378 27.6306 56.0986 27.7736 56.2927V55.6875H28.8536V59.9311H27.7736V59.3106C27.6357 59.5098 27.4442 59.6758 27.1991 59.8085C26.9591 59.9362 26.6808 60 26.3642 60C26.0067 60 25.6799 59.9081 25.3837 59.7243C25.0927 59.5404 24.8603 59.2825 24.6867 58.9506C24.5182 58.6136 24.4339 58.228 24.4339 57.794ZM27.7736 57.8093C27.7736 57.5489 27.7225 57.3267 27.6204 57.1429C27.5183 56.954 27.3804 56.811 27.2068 56.714C27.0332 56.6118 26.8468 56.5608 26.6476 56.5608C26.4485 56.5608 26.2646 56.6093 26.0961 56.7063C25.9276 56.8033 25.7897 56.9463 25.6825 57.1352C25.5803 57.3191 25.5293 57.5387 25.5293 57.794C25.5293 58.0493 25.5803 58.274 25.6825 58.4681C25.7897 58.657 25.9276 58.8025 26.0961 58.9047C26.2697 59.0068 26.4536 59.0579 26.6476 59.0579C26.8468 59.0579 27.0332 59.0093 27.2068 58.9123C27.3804 58.8102 27.5183 58.6672 27.6204 58.4834C27.7225 58.2944 27.7736 58.0697 27.7736 57.8093Z" fill="white"/>
<path d="M31.1495 56.5684V58.6213C31.1495 58.7642 31.1827 58.8689 31.2491 58.9353C31.3206 58.9966 31.4381 59.0272 31.6015 59.0272H32.0994V59.9311H31.4253C30.5214 59.9311 30.0695 59.4919 30.0695 58.6136V56.5684H29.564V55.6875H30.0695V54.6381H31.1495V55.6875H32.0994V56.5684H31.1495Z" fill="white"/>
<path d="M33.4145 55.182C33.2256 55.182 33.0673 55.1233 32.9396 55.0058C32.817 54.8833 32.7558 54.7326 32.7558 54.5539C32.7558 54.3752 32.817 54.2271 32.9396 54.1096C33.0673 53.9871 33.2256 53.9258 33.4145 53.9258C33.6034 53.9258 33.7592 53.9871 33.8818 54.1096C34.0094 54.2271 34.0732 54.3752 34.0732 54.5539C34.0732 54.7326 34.0094 54.8833 33.8818 55.0058C33.7592 55.1233 33.6034 55.182 33.4145 55.182ZM33.943 55.6875V59.9311H32.8707V55.6875H33.943Z" fill="white"/>
<path d="M36.8868 60C36.4783 60 36.1107 59.9107 35.7838 59.7319C35.457 59.5481 35.1991 59.2902 35.0102 58.9583C34.8264 58.6264 34.7344 58.2434 34.7344 57.8093C34.7344 57.3753 34.8289 56.9923 35.0179 56.6603C35.2119 56.3284 35.4749 56.0731 35.8068 55.8944C36.1387 55.7105 36.509 55.6186 36.9175 55.6186C37.326 55.6186 37.6962 55.7105 38.0282 55.8944C38.3601 56.0731 38.6205 56.3284 38.8095 56.6603C39.0035 56.9923 39.1005 57.3753 39.1005 57.8093C39.1005 58.2434 39.0009 58.6264 38.8018 58.9583C38.6077 59.2902 38.3422 59.5481 38.0052 59.7319C37.6733 59.9107 37.3005 60 36.8868 60ZM36.8868 59.0655C37.0809 59.0655 37.2622 59.0196 37.4307 58.9276C37.6043 58.8306 37.7422 58.6876 37.8443 58.4987C37.9465 58.3098 37.9975 58.08 37.9975 57.8093C37.9975 57.4059 37.8903 57.0969 37.6758 56.8825C37.4664 56.6629 37.2086 56.5531 36.9022 56.5531C36.5958 56.5531 36.3379 56.6629 36.1285 56.8825C35.9243 57.0969 35.8221 57.4059 35.8221 57.8093C35.8221 58.2127 35.9217 58.5242 36.1209 58.7438C36.3251 58.9583 36.5805 59.0655 36.8868 59.0655Z" fill="white"/>
<path d="M42.2387 55.6263C42.7443 55.6263 43.1528 55.7871 43.4643 56.1088C43.7758 56.4254 43.9315 56.8697 43.9315 57.4416V59.9311H42.8592V57.5872C42.8592 57.2501 42.7749 56.9923 42.6064 56.8135C42.4379 56.6297 42.2081 56.5378 41.917 56.5378C41.6208 56.5378 41.3859 56.6297 41.2123 56.8135C41.0438 56.9923 40.9595 57.2501 40.9595 57.5872V59.9311H39.8872V55.6875H40.9595V56.2161C41.1025 56.0322 41.2838 55.8892 41.5034 55.7871C41.7281 55.6799 41.9732 55.6263 42.2387 55.6263Z" fill="white"/>
<path d="M50.0549 58.9123H47.9254L47.5731 59.9311H46.4471L48.3697 54.5769H49.6183L51.5409 59.9311H50.4072L50.0549 58.9123ZM49.7638 58.0544L48.9902 55.8178L48.2165 58.0544H49.7638Z" fill="white"/>
<path d="M58.1422 55.6875L56.9014 59.9311H55.7447L54.9711 56.9667L54.1974 59.9311H53.0332L51.7846 55.6875H52.8723L53.623 58.92L54.4349 55.6875H55.5686L56.3652 58.9123L57.1158 55.6875H58.1422Z" fill="white"/>
<path d="M58.4467 57.794C58.4467 57.365 58.531 56.9846 58.6995 56.6527C58.8731 56.3208 59.1055 56.0654 59.3965 55.8867C59.6927 55.708 60.0221 55.6186 60.3847 55.6186C60.7013 55.6186 60.977 55.6824 61.2119 55.8101C61.4519 55.9378 61.6434 56.0986 61.7864 56.2927V55.6875H62.8664V59.9311H61.7864V59.3106C61.6485 59.5098 61.457 59.6758 61.2119 59.8085C60.9719 59.9362 60.6936 60 60.377 60C60.0195 60 59.6927 59.9081 59.3965 59.7243C59.1055 59.5404 58.8731 59.2825 58.6995 58.9506C58.531 58.6136 58.4467 58.228 58.4467 57.794ZM61.7864 57.8093C61.7864 57.5489 61.7353 57.3267 61.6332 57.1429C61.5311 56.954 61.3932 56.811 61.2196 56.714C61.0459 56.6118 60.8596 56.5608 60.6604 56.5608C60.4612 56.5608 60.2774 56.6093 60.1089 56.7063C59.9404 56.8033 59.8025 56.9463 59.6953 57.1352C59.5931 57.3191 59.5421 57.5387 59.5421 57.794C59.5421 58.0493 59.5931 58.274 59.6953 58.4681C59.8025 58.657 59.9404 58.8025 60.1089 58.9047C60.2825 59.0068 60.4664 59.0579 60.6604 59.0579C60.8596 59.0579 61.0459 59.0093 61.2196 58.9123C61.3932 58.8102 61.5311 58.6672 61.6332 58.4834C61.7353 58.2944 61.7864 58.0697 61.7864 57.8093Z" fill="white"/>
<path d="M64.9862 56.3463C65.124 56.1216 65.3028 55.9454 65.5223 55.8178C65.747 55.6901 66.0024 55.6263 66.2883 55.6263V56.7523H66.0049C65.6679 56.7523 65.4125 56.8314 65.2389 56.9897C65.0704 57.148 64.9862 57.4238 64.9862 57.817V59.9311H63.9138V55.6875H64.9862V56.3463Z" fill="white"/>
<path d="M66.7349 57.794C66.7349 57.365 66.8191 56.9846 66.9876 56.6527C67.1613 56.3208 67.3962 56.0654 67.6923 55.8867C67.9885 55.708 68.3179 55.6186 68.6805 55.6186C68.9562 55.6186 69.2192 55.6799 69.4694 55.8024C69.7196 55.9199 69.9188 56.0782 70.0669 56.2773V54.2628H71.1546V59.9311H70.0669V59.303C69.9341 59.5123 69.7477 59.6809 69.5077 59.8085C69.2677 59.9362 68.9894 60 68.6728 60C68.3153 60 67.9885 59.9081 67.6923 59.7243C67.3962 59.5404 67.1613 59.2825 66.9876 58.9506C66.8191 58.6136 66.7349 58.228 66.7349 57.794ZM70.0745 57.8093C70.0745 57.5489 70.0235 57.3267 69.9213 57.1429C69.8192 56.954 69.6813 56.811 69.5077 56.714C69.3341 56.6118 69.1477 56.5608 68.9485 56.5608C68.7494 56.5608 68.5656 56.6093 68.397 56.7063C68.2285 56.8033 68.0906 56.9463 67.9834 57.1352C67.8813 57.3191 67.8302 57.5387 67.8302 57.794C67.8302 58.0493 67.8813 58.274 67.9834 58.4681C68.0906 58.657 68.2285 58.8025 68.397 58.9047C68.5707 59.0068 68.7545 59.0579 68.9485 59.0579C69.1477 59.0579 69.3341 59.0093 69.5077 58.9123C69.6813 58.8102 69.8192 58.6672 69.9213 58.4834C70.0235 58.2944 70.0745 58.0697 70.0745 57.8093Z" fill="white"/>
<path d="M67.1539 5.03906C67.805 5.84972 68.338 6.48485 68.7529 6.94444C69.1742 7.40403 69.6114 7.79021 70.0646 8.10298C70.5242 8.42214 70.9742 8.58172 71.4147 8.58172C71.8296 8.58172 72.1551 8.47959 72.3913 8.27533C72.6338 8.07745 72.7551 7.7551 72.7551 7.30828C72.7551 6.87422 72.6179 6.53592 72.3434 6.29336C72.0753 6.05718 71.7147 5.92951 71.2615 5.91036V5.06779C71.9764 5.09332 72.5285 5.31035 72.9179 5.71887C73.3073 6.12739 73.502 6.654 73.502 7.2987C73.502 7.95617 73.32 8.4764 72.9562 8.85939C72.5924 9.24876 72.0913 9.44345 71.453 9.44345C70.9232 9.44345 70.4061 9.28387 69.9018 8.96471C69.404 8.65194 68.9635 8.29448 68.5805 7.89234C68.2039 7.4902 67.7635 6.97635 67.2592 6.3508V9.64452H66.5315V5.03906H67.1539Z" fill="white"/>
<path d="M69.988 10.6517C71.0859 10.6517 71.9413 10.8305 72.5541 11.1879C73.1732 11.5454 73.4828 12.1709 73.4828 13.0646C73.4828 13.9518 73.1732 14.5742 72.5541 14.9317C71.9413 15.2891 71.0859 15.4678 69.988 15.4678C68.871 15.4678 68.0029 15.2891 67.3837 14.9317C66.7645 14.5742 66.4549 13.9518 66.4549 13.0646C66.4549 12.1709 66.7645 11.5454 67.3837 11.1879C68.0029 10.8305 68.871 10.6517 69.988 10.6517ZM69.988 14.6061C70.5434 14.6061 71.0125 14.5678 71.3955 14.4912C71.7849 14.421 72.0977 14.271 72.3338 14.0412C72.57 13.8178 72.6881 13.4922 72.6881 13.0646C72.6881 12.6305 72.57 12.2986 72.3338 12.0688C72.0977 11.8454 71.7849 11.6954 71.3955 11.6188C71.0125 11.5486 70.5434 11.5135 69.988 11.5135C69.4135 11.5135 68.9316 11.5486 68.5422 11.6188C68.1529 11.6954 67.8401 11.8454 67.6039 12.0688C67.3677 12.2986 67.2496 12.6305 67.2496 13.0646C67.2496 13.4922 67.3677 13.8178 67.6039 14.0412C67.8401 14.271 68.1529 14.421 68.5422 14.4912C68.9316 14.5678 69.4135 14.6061 69.988 14.6061Z" fill="white"/>
<path d="M67.1539 16.5587C67.805 17.3693 68.338 18.0045 68.7529 18.4641C69.1742 18.9237 69.6114 19.3098 70.0646 19.6226C70.5242 19.9418 70.9742 20.1013 71.4147 20.1013C71.8296 20.1013 72.1551 19.9992 72.3913 19.795C72.6338 19.5971 72.7551 19.2747 72.7551 18.8279C72.7551 18.3938 72.6179 18.0555 72.3434 17.813C72.0753 17.5768 71.7147 17.4491 71.2615 17.43V16.5874C71.9764 16.6129 72.5285 16.83 72.9179 17.2385C73.3073 17.647 73.502 18.1736 73.502 18.8183C73.502 19.4758 73.32 19.996 72.9562 20.379C72.5924 20.7684 72.0913 20.9631 71.453 20.9631C70.9232 20.9631 70.4061 20.8035 69.9018 20.4843C69.404 20.1716 68.9635 19.8141 68.5805 19.412C68.2039 19.0098 67.7635 18.496 67.2592 17.8704V21.1641H66.5315V16.5587H67.1539Z" fill="white"/>
<path d="M67.1539 22.066C67.805 22.8767 68.338 23.5118 68.7529 23.9714C69.1742 24.431 69.6114 24.8172 70.0646 25.13C70.5242 25.4491 70.9742 25.6087 71.4147 25.6087C71.8296 25.6087 72.1551 25.5066 72.3913 25.3023C72.6338 25.1044 72.7551 24.7821 72.7551 24.3353C72.7551 23.9012 72.6179 23.5629 72.3434 23.3203C72.0753 23.0842 71.7147 22.9565 71.2615 22.9373V22.0948C71.9764 22.1203 72.5285 22.3373 72.9179 22.7458C73.3073 23.1544 73.502 23.681 73.502 24.3257C73.502 24.9831 73.32 25.5034 72.9562 25.8864C72.5924 26.2757 72.0913 26.4704 71.453 26.4704C70.9232 26.4704 70.4061 26.3108 69.9018 25.9917C69.404 25.6789 68.9635 25.3215 68.5805 24.9193C68.2039 24.5172 67.7635 24.0033 67.2592 23.3778V26.6715H66.5315V22.066H67.1539Z" fill="white"/>
<path d="M23.4897 8.4256C20.6428 5.87234 17.0023 4.5957 12.5681 4.5957H9.57437H7.0211V7.59579C7.0211 8.15276 7.24236 8.68692 7.6362 9.08076C8.03003 9.4746 8.56419 9.69586 9.12117 9.69586H9.57437H12.5681C15.1511 9.69586 17.1831 10.4852 18.664 12.064C20.1449 13.6428 20.8832 15.7705 20.879 18.4472C20.879 21.1068 20.1406 23.2346 18.664 24.8304C17.1874 26.4261 15.1554 27.2155 12.5681 27.1985H9.57437V16.928H2.78906V32.305H12.5617C16.9916 32.305 20.6321 31.0135 23.4833 28.4305C24.8838 27.1729 25.9922 25.6243 26.731 23.8931C27.4698 22.1619 27.821 20.2901 27.76 18.4089C27.8218 16.5338 27.4715 14.6679 26.7336 12.943C25.9958 11.218 24.8884 9.67597 23.4897 8.4256V8.4256Z" fill="white"/>
<path d="M2.375 5.10653V2.77029C2.375 2.03557 2.66687 1.33093 3.1864 0.8114C3.70593 0.291869 4.41057 0 5.14529 0L7.50068 0C8.23541 0 8.94005 0.291869 9.45958 0.8114C9.97911 1.33093 10.271 2.03557 10.271 2.77029V5.10653C10.271 5.84126 9.97911 6.5459 9.45958 7.06543C8.94005 7.58496 8.23541 7.87683 7.50068 7.87683H5.14529C4.41109 7.87514 3.70743 7.58273 3.18826 7.06357C2.6691 6.5444 2.37669 5.84074 2.375 5.10653V5.10653Z" fill="#FF56A5"/>
<path d="M5.7134 0H2.375V3.3384H5.7134V0Z" fill="#FF56A5"/>
<path d="M10.2573 4.55127H6.91895V7.88966H10.2573V4.55127Z" fill="#FF56A5"/>
<path d="M63.3338 25.8267L62.9509 24.6841L57.3464 8.47089C56.1655 5.37505 54.0655 4.64099 52.8782 4.48779H42.9269C42.8779 5.56065 43.1306 6.62576 43.6564 7.56223C44.1822 8.4987 44.9599 9.26904 45.9014 9.78582L38.082 32.3056H45.2822L46.827 27.6395H56.8102H62.1721C64.1126 27.6076 63.3338 25.8267 63.3338 25.8267ZM53.3059 22.5139H48.5121L51.7995 12.6327L54.5825 20.9947C54.7229 21.5181 54.7549 22.4819 53.3059 22.5139Z" fill="white"/>
<path d="M29.7648 8.93648V6.8811C29.7614 6.56545 29.8207 6.25227 29.9391 5.95967C30.0576 5.66708 30.2329 5.40088 30.4549 5.17649C30.6769 4.9521 30.9413 4.77396 31.2326 4.6524C31.5239 4.53083 31.8364 4.46824 32.1521 4.46826H34.1819C34.8151 4.46826 35.4223 4.71978 35.87 5.16749C36.3177 5.61519 36.5692 6.22241 36.5692 6.85557V8.93648C36.5692 9.24998 36.5075 9.56042 36.3875 9.85006C36.2675 10.1397 36.0917 10.4029 35.87 10.6246C35.6483 10.8462 35.3852 11.0221 35.0955 11.1421C34.8059 11.262 34.4954 11.3238 34.1819 11.3238H32.1521C31.8383 11.3246 31.5275 11.2635 31.2375 11.1438C30.9475 11.0241 30.684 10.8483 30.4621 10.6264C30.2403 10.4046 30.0645 10.1411 29.9448 9.85106C29.8251 9.56104 29.7639 9.25022 29.7648 8.93648V8.93648Z" fill="#FFCFD0"/>
<path d="M32.6498 4.49365H29.7646V7.37884H32.6498V4.49365Z" fill="#FFCFD0"/>
<path d="M36.5756 8.4126H33.6904V11.2978H36.5756V8.4126Z" fill="#FFCFD0"/>
<path d="M70.6042 29.7646H68.0062V34.6542H63.0273V37.3415C63.0273 38.4283 63.4591 39.4707 64.2276 40.2392C64.9961 41.0077 66.0385 41.4395 67.1253 41.4395H74.683V33.8307C74.673 32.7532 74.2396 31.7229 73.4765 30.9622C72.7134 30.2014 71.6817 29.7713 70.6042 29.7646V29.7646Z" fill="#C0C2C4"/>
<path d="M6.20392 27.1538H3.35702C1.50623 27.1538 0.00585938 28.6542 0.00585938 30.505V33.3519C0.00585938 35.2027 1.50623 36.703 3.35702 36.703H6.20392C8.05471 36.703 9.55508 35.2027 9.55508 33.3519V30.505C9.55508 28.6542 8.05471 27.1538 6.20392 27.1538Z" fill="#AD4DBF"/>
<path d="M9.54888 27.1475H5.50195V31.1944H9.54888V27.1475Z" fill="#AD4DBF"/>
<path d="M4.04693 32.6562H0V36.7032H4.04693V32.6562Z" fill="#AD4DBF"/>
<path d="M9.55566 27.1475V32.2731H13.1366L9.55566 27.1475Z" fill="#C0C2C4"/>
<path d="M49.1507 31.986V30.0008C49.1507 29.3812 48.9045 28.7869 48.4664 28.3488C48.0283 27.9107 47.434 27.6646 46.8144 27.6646H44.8548C44.2352 27.6646 43.641 27.9107 43.2028 28.3488C42.7647 28.7869 42.5186 29.3812 42.5186 30.0008V31.986C42.5186 32.6056 42.7647 33.1998 43.2028 33.6379C43.641 34.0761 44.2352 34.3222 44.8548 34.3222H46.84C47.4557 34.3171 48.0443 34.0686 48.4773 33.6308C48.9103 33.193 49.1524 32.6017 49.1507 31.986V31.986Z" fill="#FF56A5"/>
<path d="M49.1758 27.6582H46.3545V30.4796H49.1758V27.6582Z" fill="#FF56A5"/>
<path d="M45.3272 31.5078H42.5059V34.3292H45.3272V31.5078Z" fill="#FF56A5"/>
</svg>
