<svg xmlns="http://www.w3.org/2000/svg" width="166" height="48" fill="none" viewBox="0 0 166 48">
    <path fill="#000" d="M159.852 48H6.148C2.768 48 0 45.298 0 42V6c0-3.299 2.768-6 6.148-6h153.704C163.232 0 166 2.701 166 6v36c0 3.298-2.768 6-6.148 6z"/>
    <path fill="#A6A6A6" d="M159.852.962c2.846 0 5.163 2.26 5.163 5.038v36c0 2.778-2.317 5.038-5.163 5.038H6.148C3.302 47.038.985 44.779.985 42V6C.985 3.222 3.302.962 6.148.962h153.704zm0-.962H6.148C2.768 0 0 2.701 0 6v36c0 3.298 2.768 6 6.148 6h153.704c3.38 0 6.148-2.702 6.148-6V6c0-3.299-2.768-6-6.148-6z"/>
    <path fill="#fff" stroke="#fff" stroke-miterlimit="10" stroke-width=".16" d="M57.997 12.072c0 1.007-.307 1.813-.913 2.414-.696.713-1.603 1.071-2.715 1.071-1.062 0-1.968-.364-2.712-1.083-.746-.73-1.118-1.624-1.118-2.695 0-1.072.372-1.967 1.118-2.69C52.4 8.364 53.307 8 54.37 8c.528 0 1.032.108 1.514.307.479.2.87.471 1.152.806l-.642.636c-.494-.572-1.165-.853-2.024-.853-.775 0-1.447.265-2.017.8-.564.536-.847 1.23-.847 2.084 0 .852.283 1.553.847 2.09.57.528 1.242.8 2.017.8.822 0 1.514-.272 2.06-.807.359-.354.563-.842.617-1.466H54.37v-.87h3.572c.043.188.055.37.055.546zM63.664 9.053h-3.356v2.29h3.025v.87h-3.025v2.291h3.356v.887h-4.306V8.165h4.306v.888zM67.663 15.391h-.95V9.053h-2.058v-.888h5.068v.888h-2.06v6.338zM73.39 15.391V8.165h.949v7.226h-.949zM78.543 15.391H77.6V9.053h-2.066v-.888h5.074v.888h-2.066v6.338zM90.203 14.462c-.728.73-1.628 1.095-2.703 1.095-1.08 0-1.98-.364-2.708-1.095-.725-.73-1.087-1.624-1.087-2.683 0-1.06.362-1.955 1.087-2.684C85.52 8.365 86.42 8 87.5 8c1.069 0 1.97.364 2.696 1.101.732.735 1.093 1.624 1.093 2.678 0 1.059-.361 1.954-1.087 2.683zm-4.708-.606c.547.541 1.212.812 2.005.812.787 0 1.459-.27 2-.812.546-.54.822-1.235.822-2.077 0-.843-.276-1.537-.822-2.078-.541-.541-1.213-.812-2-.812-.793 0-1.458.27-2.005.812-.546.54-.823 1.235-.823 2.078 0 .842.277 1.536.823 2.077zM92.622 15.391V8.165h1.153l3.584 5.62h.041l-.041-1.389v-4.23h.948v7.225h-.99l-3.753-5.897h-.041l.041 1.395v4.502h-.942z"/>
    <path fill="#fff" d="M83.472 25.945c-2.888 0-5.248 2.154-5.248 5.127 0 2.949 2.36 5.126 5.248 5.126 2.894 0 5.253-2.177 5.253-5.126 0-2.973-2.359-5.127-5.253-5.127zm0 8.234c-1.585 0-2.948-1.282-2.948-3.107 0-1.849 1.363-3.108 2.948-3.108s2.954 1.26 2.954 3.108c0 1.825-1.37 3.107-2.954 3.107zm-11.45-8.234c-2.894 0-5.247 2.154-5.247 5.127 0 2.949 2.353 5.126 5.247 5.126 2.893 0 5.248-2.177 5.248-5.126 0-2.973-2.355-5.127-5.248-5.127zm0 8.234c-1.586 0-2.954-1.282-2.954-3.107 0-1.849 1.368-3.108 2.954-3.108 1.585 0 2.948 1.26 2.948 3.108 0 1.825-1.363 3.107-2.948 3.107zm-13.624-6.663v2.179h5.307c-.155 1.217-.57 2.112-1.206 2.736-.775.753-1.981 1.59-4.1 1.59-3.267 0-5.825-2.584-5.825-5.786 0-3.202 2.558-5.786 5.824-5.786 1.766 0 3.051.677 4 1.554l1.566-1.536c-1.327-1.241-3.091-2.195-5.566-2.195-4.479 0-8.243 3.572-8.243 7.963 0 4.39 3.764 7.963 8.243 7.963 2.421 0 4.24-.778 5.669-2.236 1.465-1.436 1.921-3.455 1.921-5.085 0-.506-.043-.972-.12-1.36h-7.47zm55.712 1.69c-.432-1.147-1.765-3.261-4.479-3.261-2.69 0-4.93 2.078-4.93 5.127 0 2.872 2.217 5.126 5.188 5.126 2.402 0 3.789-1.436 4.359-2.272l-1.783-1.165c-.595.853-1.405 1.418-2.576 1.418-1.164 0-1.998-.523-2.533-1.554l6.995-2.837-.241-.583zm-7.132 1.706c-.06-1.976 1.566-2.989 2.731-2.989.913 0 1.688.448 1.946 1.088l-4.677 1.901zm-5.686 4.974h2.3V20.819h-2.3v15.067zm-3.766-8.8h-.076c-.517-.599-1.502-1.141-2.75-1.141-2.62 0-5.014 2.254-5.014 5.144 0 2.873 2.395 5.109 5.014 5.109 1.248 0 2.233-.547 2.75-1.165h.076v.735c0 1.96-1.068 3.014-2.79 3.014-1.406 0-2.277-.995-2.637-1.83l-2 .817c.577 1.36 2.103 3.032 4.636 3.032 2.696 0 4.971-1.555 4.971-5.339v-9.205h-2.18v.83zm-2.63 7.093c-1.584 0-2.91-1.3-2.91-3.09 0-1.807 1.326-3.125 2.91-3.125 1.562 0 2.793 1.318 2.793 3.125 0 1.79-1.23 3.09-2.792 3.09zm29.979-13.36h-5.5v15.067h2.294v-5.709h3.206c2.547 0 5.045-1.806 5.045-4.68 0-2.872-2.504-4.678-5.045-4.678zm.06 7.262h-3.266v-5.166h3.266c1.712 0 2.69 1.393 2.69 2.582 0 1.166-.978 2.584-2.69 2.584zm14.176-2.165c-1.657 0-3.38.717-4.089 2.307l2.036.836c.438-.836 1.243-1.107 2.095-1.107 1.189 0 2.396.7 2.414 1.937v.159c-.415-.236-1.303-.584-2.396-.584-2.192 0-4.425 1.183-4.425 3.39 0 2.02 1.795 3.32 3.813 3.32 1.543 0 2.395-.683 2.93-1.477h.078v1.165h2.215v-5.78c0-2.671-2.035-4.166-4.671-4.166zm-.277 8.257c-.75 0-1.795-.365-1.795-1.276 0-1.167 1.303-1.614 2.432-1.614 1.01 0 1.483.218 2.096.506-.18 1.395-1.405 2.384-2.733 2.384zm13.018-7.927l-2.637 6.532h-.078l-2.725-6.532h-2.473l4.095 9.128-2.337 5.079h2.396l6.31-14.207h-2.551zm-20.672 9.64h2.299V20.819h-2.299v15.067z"/>
    <path fill="url(#paint0_linear)" d="M12.522 8.812c-.361.37-.57.948-.57 1.695v26.657c0 .747.209 1.324.57 1.695l.09.08 15.237-14.93v-.353L12.611 8.725l-.089.087z"/>
    <path fill="url(#paint1_linear)" d="M32.923 28.988l-5.074-4.98v-.352l5.08-4.98.114.065 6.016 3.356c1.717.952 1.717 2.519 0 3.477l-6.016 3.35-.12.064z"/>
    <path fill="url(#paint2_linear)" d="M33.043 28.924l-5.194-5.092L12.522 38.86c.57.587 1.5.658 2.558.07l17.963-10.006z"/>
    <path fill="url(#paint3_linear)" d="M33.043 18.74L15.08 8.736c-1.058-.582-1.988-.51-2.558.077l15.327 15.02 5.194-5.091z"/>
    <defs>
        <linearGradient id="paint0_linear" x1="26.497" x2="6.272" y1="37.441" y2="16.809" gradientUnits="userSpaceOnUse">
            <stop stop-color="#00A0FF"/>
            <stop offset=".007" stop-color="#00A1FF"/>
            <stop offset=".26" stop-color="#00BEFF"/>
            <stop offset=".512" stop-color="#00D2FF"/>
            <stop offset=".76" stop-color="#00DFFF"/>
            <stop offset="1" stop-color="#00E3FF"/>
        </linearGradient>
        <linearGradient id="paint1_linear" x1="41.295" x2="11.542" y1="23.831" y2="23.831" gradientUnits="userSpaceOnUse">
            <stop stop-color="#FFE000"/>
            <stop offset=".409" stop-color="#FFBD00"/>
            <stop offset=".775" stop-color="orange"/>
            <stop offset="1" stop-color="#FF9C00"/>
        </linearGradient>
        <linearGradient id="paint2_linear" x1="30.219" x2="2.793" y1="21.065" y2="-6.914" gradientUnits="userSpaceOnUse">
            <stop stop-color="#FF3A44"/>
            <stop offset="1" stop-color="#C31162"/>
        </linearGradient>
        <linearGradient id="paint3_linear" x1="8.664" x2="20.911" y1="47.727" y2="35.233" gradientUnits="userSpaceOnUse">
            <stop stop-color="#32A071"/>
            <stop offset=".069" stop-color="#2DA771"/>
            <stop offset=".476" stop-color="#15CF74"/>
            <stop offset=".801" stop-color="#06E775"/>
            <stop offset="1" stop-color="#00F076"/>
        </linearGradient>
    </defs>
</svg>
