<svg xmlns="http://www.w3.org/2000/svg" width="80" height="80" fill="none" viewBox="0 0 80 80">
    <path stroke="#8AD554" stroke-linecap="round" stroke-linejoin="round" stroke-width="4" d="M73.333 36.933V40c-.004 7.188-2.332 14.182-6.635 19.94-4.304 5.756-10.354 9.968-17.247 12.006-6.893 2.038-14.26 1.794-21.003-.697-6.743-2.492-12.5-7.096-16.412-13.126-3.912-6.03-5.77-13.163-5.297-20.335.473-7.173 3.252-14 7.922-19.465 4.67-5.464 10.981-9.272 17.993-10.856C39.665 5.883 47 6.607 53.566 9.533"/>
    <path stroke="#8AD554" stroke-linecap="round" stroke-linejoin="round" stroke-width="4" d="M73.333 13.334L40 46.7l-10-10"/>
</svg>
