<svg width="464" height="153" viewBox="0 0 464 153" fill="none" xmlns="http://www.w3.org/2000/svg">
<rect y="104" width="464" height="49" fill="#3C55B3"/>
<path d="M244.867 131.458H244.105C243.916 130.764 243.58 130.119 243.122 129.566C242.663 129.012 242.091 128.563 241.444 128.249C240.798 127.934 240.091 127.761 239.372 127.742C238.653 127.723 237.939 127.858 237.276 128.137C237.09 126.875 236.604 125.677 235.859 124.641C235.114 123.605 234.133 122.763 232.996 122.184C231.859 121.605 230.6 121.306 229.325 121.313C228.049 121.319 226.793 121.631 225.662 122.221C225.792 121.602 225.857 120.972 225.859 120.339C225.862 118.603 225.373 116.901 224.449 115.43C223.525 113.96 222.204 112.78 220.638 112.029C219.072 111.278 217.325 110.985 215.599 111.185C213.873 111.384 212.24 112.068 210.886 113.157C209.934 110.665 208.359 108.459 206.311 106.749C204.264 105.039 201.812 103.883 199.19 103.389C196.568 102.896 193.864 103.082 191.334 103.931C188.805 104.78 186.536 106.262 184.742 108.237H184.336C184.205 107.057 183.773 105.93 183.081 104.965C182.389 104 181.46 103.229 180.384 102.726C179.308 102.224 178.121 102.006 176.936 102.095C175.752 102.183 174.61 102.574 173.62 103.231C171.006 100 167.288 97.8516 163.182 97.1998C159.077 96.5479 154.876 97.4391 151.389 99.7013C151.297 96.7041 150.343 93.7968 148.642 91.3271C146.941 88.8575 144.564 86.9301 141.796 85.7754C139.027 84.6207 135.985 84.2876 133.032 84.816C130.08 85.3444 127.342 86.7119 125.146 88.7549C124.659 86.2137 123.365 83.8976 121.455 82.1509C119.546 80.4043 117.123 79.3205 114.548 79.0607C111.973 78.8009 109.383 79.3791 107.163 80.7091C104.942 82.0391 103.211 84.05 102.226 86.4426C100.23 84.2875 97.6417 82.7698 94.786 82.08C91.9303 81.3903 88.9344 81.5592 86.1743 82.5656C83.4143 83.5721 81.0132 85.3712 79.2724 87.737C77.5316 90.1029 76.5287 92.9302 76.3895 95.8639C73.9203 95.2084 71.3033 95.3915 68.9494 96.3844C66.5956 97.3773 64.6384 99.1237 63.3852 101.349C61.3943 100.349 59.1802 99.8754 56.9541 99.9736C54.728 100.072 52.5642 100.739 50.6691 101.91C48.774 103.082 47.2109 104.72 46.1288 106.667C45.0467 108.614 44.4817 110.806 44.4878 113.034C44.4878 113.464 44.4878 113.895 44.5493 114.264C43.1737 113.854 41.7251 113.75 40.305 113.959C38.8849 114.167 37.5277 114.684 36.3286 115.473C35.1294 116.262 34.1174 117.303 33.3633 118.524C32.6092 119.745 32.1313 121.116 31.9633 122.541C25.8118 122.935 20.6937 124.558 18.0609 126.784H16.8306C7.52947 126.784 0 128.322 0 130.203C0 132.085 7.54177 133.623 16.8306 133.623H18.0609C21.112 136.193 27.4973 137.964 34.8914 137.964C39.9291 138.11 44.9344 137.113 49.532 135.049C50.843 136.797 52.5718 138.188 54.5599 139.094C56.5481 140 58.732 140.393 60.9114 140.236C63.0909 140.079 65.1961 139.378 67.0341 138.197C68.8721 137.016 70.3841 135.392 71.4314 133.475C72.7074 135.151 74.3239 136.537 76.1746 137.543C78.0253 138.548 80.0682 139.151 82.1686 139.31C84.269 139.469 86.3794 139.181 88.3606 138.466C90.3418 137.751 92.149 136.624 93.663 135.16C94.9035 136.503 96.4468 137.53 98.1645 138.155C99.8823 138.781 101.725 138.988 103.538 138.758C105.352 138.528 107.085 137.869 108.592 136.834C110.099 135.8 111.337 134.42 112.204 132.811C113.9 135.126 116.106 137.02 118.653 138.345C121.199 139.67 124.016 140.39 126.886 140.451C129.756 140.512 132.601 139.911 135.201 138.694C137.801 137.478 140.086 135.68 141.879 133.438C142.967 135.634 144.63 137.496 146.69 138.825C148.749 140.155 151.13 140.903 153.581 140.991C156.031 141.079 158.459 140.504 160.61 139.326C162.76 138.148 164.552 136.411 165.796 134.299C166.933 135.878 168.471 137.125 170.251 137.913C172.031 138.7 173.988 138.999 175.922 138.778C177.856 138.558 179.696 137.826 181.253 136.658C182.809 135.49 184.027 133.929 184.779 132.134C185.574 133.676 186.725 135.007 188.136 136.017C189.547 137.026 191.179 137.686 192.895 137.94C194.612 138.195 196.364 138.038 198.008 137.482C199.651 136.926 201.139 135.986 202.348 134.742C202.966 135.783 203.816 136.667 204.832 137.326C205.847 137.984 207.002 138.399 208.204 138.539C209.407 138.678 210.626 138.538 211.765 138.129C212.905 137.72 213.935 137.053 214.774 136.181C215.323 137.033 216.084 137.728 216.982 138.197C217.88 138.667 218.885 138.896 219.898 138.861C220.911 138.826 221.897 138.53 222.761 137.999C223.625 137.469 224.336 136.724 224.826 135.837C226.233 136.809 227.915 137.304 229.625 137.249C231.335 137.194 232.982 136.591 234.324 135.529L235.123 135.652C235.554 136.265 236.115 136.775 236.768 137.143C237.42 137.512 238.147 137.73 238.894 137.781C239.642 137.833 240.391 137.718 241.089 137.443C241.786 137.168 242.412 136.741 242.923 136.193H244.88C253.233 136.193 260 135.111 260 133.733C260 132.356 253.221 131.458 244.867 131.458Z" fill="url(#paint0_linear)"/>
<path d="M443.871 125.693C444.212 124.879 444.258 123.973 444 123.13C443.742 122.286 443.197 121.558 442.458 121.07C441.719 120.583 440.832 120.365 439.949 120.455C439.067 120.545 438.243 120.938 437.62 121.565C437.558 120.756 437.291 119.976 436.845 119.297C436.398 118.618 435.786 118.062 435.066 117.681C434.345 117.3 433.539 117.105 432.723 117.116C431.906 117.127 431.106 117.342 430.396 117.742C430.501 117.169 430.456 116.578 430.266 116.027C430.077 115.475 429.747 114.981 429.31 114.592C428.874 114.203 428.343 113.932 427.771 113.804C427.198 113.676 426.602 113.696 426.04 113.862C426.596 112.742 426.729 111.461 426.414 110.252C426.099 109.043 425.357 107.987 424.323 107.275C423.29 106.564 422.033 106.245 420.783 106.377C419.532 106.508 418.371 107.082 417.51 107.992C417.212 106.511 416.526 105.134 415.522 104C414.518 102.866 413.231 102.014 411.79 101.53C410.349 101.047 408.806 100.948 407.315 101.245C405.823 101.542 404.437 102.223 403.295 103.221C403.295 103.056 403.295 102.89 403.295 102.717C403.295 101.379 402.76 100.096 401.808 99.1503C400.855 98.2043 399.563 97.6729 398.216 97.6729H397.784C397.784 97.4252 397.784 97.1776 397.784 96.9216C397.782 95.663 397.503 94.4201 396.965 93.2806C396.426 92.1411 395.643 91.133 394.669 90.3274C393.695 89.5218 392.555 88.9384 391.329 88.6185C390.104 88.2987 388.822 88.25 387.575 88.4761C387.93 86.9966 387.696 85.438 386.92 84.1263C386.145 82.8145 384.889 81.8511 383.416 81.4375C381.942 81.0239 380.364 81.1921 379.012 81.9068C377.66 82.6216 376.639 83.8277 376.162 85.2729C375.43 83.7702 374.317 82.4823 372.932 81.5357C371.548 80.5892 369.939 80.0164 368.264 79.8738C367.024 76.5442 364.521 73.8289 361.29 72.3088C358.06 70.7887 354.359 70.5844 350.978 71.7396C347.598 72.8949 344.808 75.318 343.203 78.4905C341.599 81.6631 341.309 85.3331 342.394 88.7155C340.555 88.8558 338.775 89.4249 337.199 90.3767C335.622 91.3284 334.294 92.6359 333.322 94.1931C332.351 95.7502 331.762 97.513 331.605 99.3384C331.448 101.164 331.727 103 332.419 104.698C330.407 105.104 328.598 106.188 327.298 107.766C325.998 109.344 325.287 111.32 325.286 113.359C325.286 113.474 325.286 113.59 325.286 113.705C323.873 113.764 322.523 114.304 321.463 115.235C320.404 116.165 319.699 117.43 319.467 118.816C318.614 118.858 317.811 119.225 317.223 119.839C316.634 120.454 316.307 121.27 316.308 122.118C316.308 122.225 316.308 122.324 316.308 122.432C315.881 122.277 315.422 122.227 314.971 122.287C314.52 122.347 314.091 122.514 313.719 122.774C313.348 123.035 313.045 123.381 312.837 123.782C312.629 124.184 312.522 124.63 312.526 125.082C312.526 125.131 312.526 125.189 312.526 125.238C308.785 125.42 306 126.064 306 126.89C306 127.847 309.832 128.615 314.554 128.615C317.022 128.689 319.489 128.411 321.878 127.789C323.776 128.516 325.796 128.875 327.83 128.846C330.518 128.945 333.176 128.262 335.478 126.881C338.291 129.791 342.128 131.506 346.186 131.67C350.245 131.833 354.209 130.43 357.25 127.756C358.434 128.795 359.818 129.582 361.319 130.072C362.819 130.562 364.404 130.743 365.978 130.605C367.551 130.467 369.08 130.012 370.47 129.268C371.861 128.524 373.085 127.507 374.067 126.279C374.933 127.749 376.115 129.01 377.529 129.973C378.943 130.937 380.554 131.578 382.247 131.851C383.939 132.124 385.672 132.022 387.32 131.552C388.968 131.083 390.492 130.257 391.782 129.135C393.067 130.171 394.687 130.709 396.342 130.648C397.996 130.588 399.572 129.933 400.776 128.805C401.195 129.101 401.651 129.342 402.131 129.523C402.553 130.075 403.109 130.513 403.746 130.796C404.383 131.079 405.082 131.198 405.778 131.142C406.473 131.086 407.144 130.857 407.727 130.476C408.31 130.095 408.787 129.574 409.114 128.962C409.675 129.839 410.458 130.555 411.384 131.038C412.31 131.521 413.348 131.754 414.393 131.715C415.438 131.676 416.455 131.365 417.342 130.814C418.229 130.263 418.955 129.49 419.447 128.574C419.82 129.052 420.307 129.43 420.865 129.671C421.423 129.913 422.034 130.011 422.64 129.957C423.247 129.903 423.829 129.698 424.335 129.361C424.84 129.024 425.252 128.566 425.532 128.029C426.414 128.854 428.392 129.482 430.686 129.482C432.166 129.534 433.639 129.252 434.993 128.656C435.702 128.741 436.415 128.782 437.129 128.78C437.91 128.78 438.691 128.728 439.465 128.623C440.734 128.955 442.043 129.113 443.355 129.094C446.473 129.094 449 128.326 449 127.385C449 126.444 446.772 125.767 443.871 125.693Z" fill="url(#paint1_linear)"/>
<path d="M408.999 117.5V110C408.999 110 402.499 109.5 399.499 107.5C396.499 105.5 392.069 102.5 392.069 102.5C385.129 101.66 377.339 93.64 370.069 89.73C370.132 89.613 370.166 89.4828 370.169 89.35C370.173 89.1785 370.125 89.0098 370.033 88.8654C369.94 88.7211 369.806 88.6078 369.649 88.54L369.429 85.11H369.189L368.969 88.54C368.811 88.6078 368.678 88.7211 368.585 88.8654C368.492 89.0098 368.445 89.1785 368.449 89.35C368.451 89.4828 368.486 89.6132 368.549 89.73C366.741 91.2195 364.677 92.3681 362.459 93.12C360.954 93.6388 359.563 94.4397 358.359 95.48V93.88H358.599V92.71H358.999V91.18H358.309V79.29H358.549V78.1H358.999V76.59H358.269C358.247 75.2892 358.154 73.9905 357.989 72.7C357.989 72.7 356.399 62.23 356.089 62.23C355.779 62.23 354.089 72.58 354.089 72.58C353.908 73.906 353.808 75.2418 353.789 76.58H353.039V78.1H353.479V79.29H353.739V91.18H353.029C352.041 88.3476 350.238 85.8701 347.847 84.059C345.456 82.2478 342.583 81.1835 339.589 81V80.46C339.589 80.3698 339.553 80.2833 339.489 80.2196C339.425 80.1558 339.339 80.12 339.249 80.12H338.999L338.779 74.43C339.423 74.6433 340.109 74.6982 340.779 74.59C341.317 74.4983 341.831 74.2997 342.292 74.006C342.752 73.7124 343.149 73.3295 343.459 72.88C343.011 73.1488 342.521 73.3383 342.009 73.44C341.21 73.575 340.389 73.4725 339.647 73.1452C338.906 72.8179 338.277 72.2802 337.838 71.5988C337.399 70.9174 337.17 70.1222 337.179 69.3118C337.188 68.5014 337.435 67.7115 337.889 67.04C337.193 67.4742 336.642 68.1052 336.306 68.8529C335.969 69.6007 335.862 70.4315 335.999 71.24C336.12 71.9194 336.41 72.5571 336.844 73.0939C337.278 73.6307 337.84 74.049 338.479 74.31L338.259 80.1H337.999C337.909 80.1 337.822 80.1358 337.758 80.1996C337.695 80.2633 337.659 80.3498 337.659 80.44V81C334.645 81.2143 331.763 82.3233 329.383 84.185C327.003 86.0466 325.233 88.5763 324.299 91.45V79.21H324.639V77.7H325.199V75.76H324.289V60.51H324.629V59H325.189V57H324.239C324.21 55.328 324.09 53.6589 323.879 52C323.879 52 321.879 38.58 321.459 38.58C321.039 38.58 318.939 51.84 318.939 51.84C318.719 53.53 318.599 55.27 318.539 57H317.609V59H318.169V60.53H318.489V75.76H317.599V77.7H318.159V79.21H318.479V85C314.479 77.09 307.139 71.48 298.589 70.45V69.26C298.589 68.7 298.309 68.26 297.959 68.26H296.769L295.919 59.62H295.539L294.669 68.26H293.479C293.139 68.26 292.869 68.72 292.869 69.26V70.43C286.206 71.3068 280.162 74.7874 276.059 80.11C274.999 69.81 268.999 61.27 253.279 55C242.999 50.82 239.539 44.73 238.449 41.85C240.099 41.67 241.359 40.85 241.359 39.85C241.359 38.85 240.249 38.2 238.759 37.95L238.519 31.43C238.999 31.27 239.349 30.99 239.349 30.64C239.349 30.29 238.989 29.99 238.459 29.85L238.219 23.45C241.178 24.0992 244.27 23.7294 246.993 22.4006C249.716 21.0719 251.91 18.8622 253.219 16.13C251.916 17.2646 250.4 18.1281 248.759 18.67C246.238 19.5142 243.525 19.5977 240.957 18.9101C238.389 18.2225 236.08 16.7943 234.319 14.8034C232.557 12.8126 231.421 10.3472 231.051 7.71476C230.681 5.08229 231.094 2.39919 232.239 0C230.359 1.6072 228.955 3.69906 228.181 6.04817C227.406 8.39728 227.291 10.9137 227.846 13.324C228.402 15.7343 229.608 17.9461 231.332 19.719C233.057 21.492 235.235 22.7582 237.629 23.38L237.249 29.84C236.599 29.96 236.119 30.28 236.119 30.69C236.119 31.1 236.539 31.4 237.119 31.52L236.759 38C235.229 38.24 234.119 39 234.119 39.92C234.119 40.84 235.449 41.76 237.189 41.92C236.099 44.78 232.629 50.92 222.359 55.01C205.609 61.73 199.959 71.01 199.419 82.19C197.412 79.0273 194.737 76.3415 191.583 74.3205C188.429 72.2995 184.871 70.9922 181.159 70.49V69.26C181.159 68.7 180.879 68.26 180.529 68.26H179.339L178.489 59.62H178.129L177.259 68.26H175.999C175.659 68.26 175.389 68.72 175.389 69.26V70.43C165.999 71.56 157.999 78.26 154.399 87.5V79.21H154.719V77.7H155.289V75.76H154.399V60.51H154.719V59H155.289V57H154.359C154.33 55.328 154.21 53.6589 153.999 52C153.999 52 151.999 38.58 151.559 38.58C151.119 38.58 149.059 51.84 149.059 51.84C148.834 53.5517 148.701 55.2741 148.659 57H147.729V59H148.289V60.53H148.609V75.76H147.719V77.7H148.279V79.21H148.599V89.66C147.429 87.1939 145.617 85.0884 143.352 83.5646C141.087 82.0408 138.454 81.1549 135.729 81V80.46C135.724 80.368 135.684 80.2815 135.617 80.2183C135.55 80.155 135.461 80.1199 135.369 80.12H135.109L134.889 74.43C135.533 74.6433 136.219 74.6982 136.889 74.59C137.427 74.4983 137.942 74.2997 138.402 74.006C138.862 73.7124 139.259 73.3295 139.569 72.88C139.116 73.1521 138.618 73.3417 138.099 73.44C137.024 73.6231 135.92 73.3736 135.029 72.7461C134.137 72.1185 133.529 71.1637 133.339 70.09C133.175 69.0413 133.415 67.9694 134.009 67.09C133.309 67.524 132.755 68.1584 132.42 68.9109C132.085 69.6633 131.984 70.4992 132.129 71.31C132.242 71.9925 132.529 72.6341 132.964 73.1721C133.399 73.7102 133.965 74.1264 134.609 74.38L134.389 80.17H134.109C134.064 80.1695 134.02 80.1782 133.979 80.1954C133.938 80.2126 133.9 80.2379 133.869 80.27C133.831 80.2974 133.8 80.3335 133.78 80.3753C133.759 80.4171 133.748 80.4633 133.749 80.51V81C130.79 81.2157 127.959 82.2939 125.605 84.1014C123.252 85.9089 121.481 88.3664 120.509 91.17H119.999V79.29H120.239V78.1H120.679V76.59H119.999C119.987 75.2887 119.894 73.9895 119.719 72.7C119.719 72.7 118.129 62.23 117.819 62.23C117.509 62.23 115.819 72.58 115.819 72.58C115.648 73.907 115.548 75.2423 115.519 76.58H114.769V78.1H115.209V79.29H115.469V91.18H114.759V92.71H115.199V93.88H115.459V95.29C114.3 94.3418 112.983 93.604 111.569 93.11C109.35 92.3583 107.287 91.2097 105.479 89.72C105.542 89.6032 105.577 89.4728 105.579 89.34C105.582 89.1713 105.537 89.0052 105.448 88.8616C105.359 88.7179 105.231 88.6028 105.079 88.53L104.859 85.1H104.599L104.379 88.53C104.224 88.6009 104.092 88.715 104 88.8586C103.908 89.0022 103.859 89.1693 103.859 89.34C103.862 89.4728 103.896 89.603 103.959 89.72C102.143 91.1977 100.082 92.3452 97.8691 93.11C94.1591 94.44 91.679 96.84 91.679 99.57C91.6878 100.354 91.8905 101.123 92.269 101.81H90.819V95.53H90.899C91.0149 95.5275 91.1254 95.4803 91.2074 95.3983C91.2893 95.3163 91.3364 95.2059 91.3389 95.09V94.83C91.3364 94.7141 91.2893 94.6037 91.2074 94.5217C91.1254 94.4397 91.0149 94.3925 90.899 94.39H90.319C90.3297 94.2235 90.3297 94.0565 90.319 93.89C90.3198 93.325 90.1758 92.7693 89.901 92.2757C89.6262 91.7821 89.2296 91.367 88.749 91.07C88.1696 90.7041 87.6642 90.2326 87.259 89.68C87.3344 89.6061 87.3775 89.5055 87.379 89.4C87.3807 89.3278 87.3606 89.2568 87.3214 89.1961C87.2821 89.1355 87.2256 89.0881 87.159 89.06L87.0591 87.55H86.999L86.899 89.06C86.8325 89.0881 86.7759 89.1355 86.7367 89.1961C86.6974 89.2568 86.6774 89.3278 86.679 89.4C86.6805 89.5055 86.7237 89.6061 86.799 89.68C86.3938 90.2326 85.8884 90.7041 85.3091 91.07C84.8284 91.367 84.4318 91.7821 84.157 92.2757C83.8822 92.7693 83.7383 93.325 83.739 93.89C83.7284 94.0565 83.7284 94.2235 83.739 94.39H83.129C83.0131 94.3925 82.9026 94.4397 82.8207 94.5217C82.7387 94.6037 82.6916 94.7141 82.6891 94.83V95.09C82.6916 95.2059 82.7387 95.3163 82.8207 95.3983C82.9026 95.4803 83.0131 95.5275 83.129 95.53H83.229V102.11C82.9833 101.251 82.537 100.463 81.9266 99.8114C81.3163 99.1593 80.5596 98.6619 79.719 98.36V98.28C79.7232 97.8821 79.6032 97.4929 79.3755 97.1666C79.1478 96.8403 78.824 96.5933 78.4491 96.46L78.1891 95.63C78.2363 95.5511 78.2638 95.4619 78.269 95.37C78.2649 95.2812 78.2366 95.1952 78.1873 95.1212C78.1379 95.0472 78.0694 94.988 77.989 94.95L77.829 92.35L77.6691 94.95C77.5887 94.988 77.5202 95.0472 77.4708 95.1212C77.4215 95.1952 77.3932 95.2812 77.389 95.37C77.3918 95.4655 77.4271 95.5572 77.489 95.63L77.209 96.46C76.8341 96.5933 76.5103 96.8403 76.2826 97.1666C76.0549 97.4929 75.9348 97.8821 75.9391 98.28V98.36C74.8471 98.7546 73.9031 99.476 73.2357 100.426C72.5683 101.376 72.2098 102.509 72.209 103.67C72.2204 104.237 72.3148 104.8 72.489 105.34C36.4999 105.34 165.5 105.34 51 105.34C51 105.34 47.9999 105.34 60.4994 105.34C72.9989 105.34 44 105.34 44 105.34L34 117.5H35.5H408.999ZM89.0691 98.38C89.0337 98.0445 89.0698 97.7053 89.1749 97.3847C89.28 97.0641 89.4518 96.7694 89.679 96.52C89.9137 96.7651 90.0917 97.0587 90.2005 97.3801C90.3094 97.7014 90.3464 98.0428 90.309 98.38V101.79H89.0789L89.0691 98.38ZM85.479 98C85.415 97.7614 85.4068 97.5113 85.4549 97.2691C85.5031 97.0268 85.6062 96.7989 85.7566 96.6029C85.9069 96.4069 86.1002 96.2481 86.3218 96.1389C86.5433 96.0296 86.787 95.9728 87.034 95.9728C87.281 95.9728 87.5247 96.0296 87.7462 96.1389C87.9677 96.2481 88.1612 96.4069 88.3115 96.6029C88.4618 96.7989 88.565 97.0268 88.6131 97.2691C88.6613 97.5113 88.653 97.7614 88.589 98V101.79H87.839H85.479V98ZM83.719 98.38C83.6843 98.0445 83.7207 97.7055 83.8258 97.385C83.9309 97.0645 84.1023 96.7698 84.329 96.52C84.5735 96.7638 84.7606 97.059 84.8766 97.3843C84.9925 97.7095 85.0343 98.0565 84.999 98.4V101.85H83.769L83.719 98.38Z" fill="#3C55B3"/>
<path d="M452.01 145.459H451.406C451.256 144.911 450.991 144.401 450.627 143.963C450.264 143.526 449.81 143.171 449.298 142.922C448.786 142.674 448.226 142.537 447.657 142.522C447.087 142.507 446.521 142.613 445.996 142.834C445.848 141.837 445.463 140.89 444.873 140.071C444.283 139.253 443.505 138.587 442.605 138.129C441.704 137.671 440.706 137.435 439.696 137.441C438.685 137.446 437.69 137.692 436.794 138.159C436.896 137.67 436.949 137.171 436.95 136.671C436.952 135.299 436.565 133.954 435.833 132.792C435.101 131.629 434.054 130.697 432.813 130.104C431.572 129.51 430.188 129.278 428.821 129.436C427.454 129.594 426.159 130.134 425.087 130.995C424.332 129.026 423.084 127.282 421.462 125.931C419.84 124.58 417.897 123.665 415.82 123.275C413.743 122.885 411.6 123.033 409.596 123.704C407.592 124.374 405.794 125.546 404.373 127.107H404.051C403.947 126.174 403.605 125.283 403.057 124.521C402.508 123.758 401.772 123.149 400.92 122.752C400.067 122.354 399.126 122.182 398.188 122.252C397.25 122.322 396.345 122.631 395.561 123.15C393.49 120.597 390.543 118.899 387.291 118.384C384.038 117.869 380.709 118.573 377.947 120.361C377.874 117.992 377.118 115.694 375.77 113.742C374.422 111.791 372.539 110.267 370.346 109.355C368.152 108.442 365.742 108.179 363.403 108.597C361.063 109.014 358.894 110.095 357.155 111.71C356.769 109.701 355.743 107.871 354.23 106.49C352.717 105.11 350.798 104.253 348.757 104.048C346.717 103.843 344.665 104.3 342.906 105.351C341.147 106.402 339.775 107.991 338.994 109.882C337.413 108.179 335.362 106.979 333.1 106.434C330.837 105.889 328.463 106.023 326.277 106.818C324.09 107.613 322.187 109.035 320.808 110.905C319.429 112.775 318.634 115.009 318.524 117.328C316.568 116.81 314.494 116.955 312.629 117.739C310.764 118.524 309.214 119.904 308.221 121.663C306.643 120.873 304.889 120.498 303.125 120.576C301.361 120.654 299.647 121.18 298.146 122.107C296.644 123.033 295.406 124.327 294.548 125.866C293.691 127.405 293.243 129.137 293.248 130.898C293.248 131.238 293.248 131.578 293.297 131.87C292.207 131.546 291.059 131.463 289.934 131.629C288.809 131.794 287.734 132.202 286.783 132.825C285.833 133.449 285.031 134.272 284.434 135.237C283.837 136.202 283.458 137.285 283.325 138.411C278.451 138.722 274.396 140.006 272.31 141.765H271.335C263.966 141.765 258 142.98 258 144.467C258 145.954 263.975 147.17 271.335 147.17H272.31C274.727 149.201 279.786 150.601 285.645 150.601C289.636 150.716 293.602 149.928 297.245 148.297C298.283 149.678 299.653 150.777 301.228 151.493C302.803 152.21 304.534 152.52 306.261 152.396C307.987 152.272 309.655 151.718 311.112 150.785C312.568 149.851 313.766 148.568 314.596 147.053C315.607 148.377 316.887 149.473 318.354 150.267C319.82 151.062 321.439 151.538 323.103 151.664C324.767 151.79 326.439 151.563 328.009 150.997C329.579 150.432 331.01 149.542 332.21 148.385C333.193 149.446 334.416 150.257 335.777 150.752C337.137 151.247 338.597 151.41 340.034 151.228C341.471 151.047 342.844 150.525 344.038 149.708C345.232 148.89 346.214 147.8 346.9 146.528C348.244 148.358 349.992 149.854 352.009 150.901C354.027 151.949 356.259 152.518 358.533 152.566C360.807 152.614 363.061 152.139 365.121 151.178C367.181 150.217 368.991 148.795 370.412 147.024C371.274 148.759 372.591 150.23 374.223 151.281C375.855 152.332 377.742 152.923 379.683 152.993C381.624 153.063 383.549 152.608 385.252 151.677C386.956 150.746 388.376 149.373 389.361 147.704C390.262 148.952 391.481 149.938 392.891 150.56C394.301 151.182 395.852 151.418 397.384 151.244C398.916 151.07 400.374 150.491 401.608 149.568C402.841 148.646 403.806 147.412 404.402 145.993C405.032 147.212 405.944 148.264 407.062 149.062C408.18 149.859 409.472 150.381 410.832 150.582C412.192 150.783 413.581 150.659 414.883 150.219C416.185 149.78 417.364 149.038 418.322 148.054C418.811 148.877 419.485 149.576 420.29 150.096C421.095 150.617 422.009 150.945 422.962 151.055C423.915 151.165 424.88 151.054 425.783 150.731C426.686 150.407 427.502 149.881 428.167 149.191C428.602 149.865 429.205 150.414 429.916 150.785C430.628 151.156 431.424 151.337 432.227 151.31C433.029 151.282 433.811 151.048 434.495 150.629C435.18 150.21 435.743 149.621 436.131 148.919C437.246 149.688 438.579 150.079 439.934 150.036C441.289 149.992 442.594 149.515 443.656 148.676L444.29 148.773C444.631 149.258 445.076 149.661 445.593 149.952C446.11 150.243 446.686 150.415 447.278 150.456C447.87 150.497 448.464 150.406 449.016 150.189C449.569 149.972 450.065 149.634 450.47 149.201H452.02C458.639 149.201 464 148.346 464 147.257C464 146.168 458.629 145.459 452.01 145.459Z" fill="url(#paint2_linear)"/>
<path d="M59.457 131.549C61.697 131.309 64.087 131.189 66.457 131.169C66.5198 130.341 66.8492 129.556 67.3958 128.931C67.9424 128.306 68.6768 127.875 69.4889 127.703C70.301 127.53 71.1471 127.626 71.9003 127.975C72.6536 128.324 73.2734 128.908 73.667 129.639C74.117 123.179 92.027 119.459 95.107 125.499C95.3158 123.914 96.0214 122.436 97.1226 121.277C98.2238 120.119 99.6639 119.339 101.236 119.05C102.808 118.761 104.431 118.978 105.873 119.67C107.314 120.361 108.499 121.492 109.257 122.899C109.307 122.999 109.337 123.099 109.387 123.199C110.509 122.939 111.649 122.765 112.797 122.679C112.581 121.519 112.777 120.321 113.351 119.291C113.925 118.261 114.841 117.463 115.94 117.036C117.039 116.61 118.253 116.58 119.372 116.953C120.49 117.326 121.444 118.078 122.067 119.079C124.818 116.815 128.246 115.534 131.807 115.439C132.734 112.94 134.266 110.711 136.266 108.949C138.265 107.188 140.67 105.949 143.265 105.344C145.86 104.739 148.565 104.786 151.138 105.481C153.71 106.176 156.07 107.498 158.007 109.329C158.002 107.793 158.407 106.284 159.18 104.958C159.953 103.631 161.066 102.535 162.404 101.782C163.742 101.029 165.257 100.646 166.792 100.674C168.327 100.701 169.827 101.138 171.137 101.939C171.519 99.4955 172.546 97.1984 174.111 95.2835C175.675 93.3686 177.722 91.9051 180.04 91.0436C182.358 90.182 184.863 89.9534 187.299 90.3814C189.734 90.8094 192.012 91.8784 193.897 93.4785C194.981 91.2722 196.653 89.4072 198.727 88.0884C200.802 86.7695 203.2 86.0477 205.658 86.0023C208.116 85.9568 210.539 86.5894 212.661 87.8307C214.783 89.0719 216.522 90.8738 217.687 93.0385C217.837 93.3085 217.957 93.5885 218.077 93.8685C220.446 91.5986 223.38 90.0056 226.574 89.2557C229.768 88.5058 233.104 88.6263 236.236 89.6047C239.367 90.5832 242.179 92.3838 244.378 94.8187C246.577 97.2536 248.082 100.234 248.737 103.449C251.976 103.396 255.129 104.498 257.63 106.557C260.131 108.617 261.817 111.499 262.387 114.689C263.809 114.391 265.281 114.447 266.676 114.851C268.071 115.256 269.345 115.996 270.387 117.009C271.663 115.959 273.15 115.196 274.747 114.773C276.344 114.349 278.014 114.275 279.642 114.555C281.271 114.835 282.82 115.463 284.184 116.395C285.548 117.327 286.695 118.543 287.547 119.959C288.219 119.436 289.034 119.13 289.884 119.083C290.734 119.036 291.578 119.25 292.304 119.696C293.029 120.142 293.601 120.798 293.943 121.578C294.285 122.358 294.38 123.223 294.217 124.059C294.761 124.186 295.293 124.36 295.807 124.579C296.181 123.748 296.817 123.063 297.617 122.629C298.302 122.257 299.076 122.083 299.853 122.127C300.631 122.17 301.381 122.429 302.02 122.874C302.659 123.319 303.162 123.933 303.472 124.647C303.782 125.361 303.888 126.148 303.777 126.919C304.47 127.07 305.141 127.305 305.777 127.619C306.663 127.429 307.587 127.53 308.411 127.909C309.235 128.287 309.914 128.922 310.347 129.719C310.436 129.893 310.513 130.074 310.577 130.259C311.121 130.132 311.678 130.065 312.237 130.059C313.14 130.02 314.041 130.177 314.878 130.519C315.715 130.86 316.469 131.379 317.087 132.039H317.537C323.297 132.039 327.957 132.939 327.957 134.039C327.957 135.139 323.337 136.039 317.537 136.039H317.087C316.474 136.674 315.735 137.173 314.916 137.504C314.098 137.835 313.219 137.99 312.337 137.959C311.26 137.968 310.195 137.739 309.217 137.289C308.438 138.677 307.246 139.788 305.807 140.469C304.719 140.984 303.538 141.273 302.335 141.319C301.132 141.366 299.932 141.168 298.807 140.739C297.301 142.174 295.374 143.089 293.31 143.349C291.246 143.61 289.153 143.204 287.337 142.189C286.335 143.271 285.103 144.117 283.732 144.663C282.362 145.21 280.886 145.444 279.414 145.348C277.941 145.252 276.509 144.829 275.221 144.11C273.932 143.39 272.821 142.392 271.967 141.189C271.373 142.945 270.283 144.492 268.83 145.644C267.377 146.796 265.621 147.503 263.776 147.681C261.93 147.858 260.072 147.498 258.426 146.645C256.78 145.791 255.415 144.48 254.497 142.869C252.852 145.136 250.708 146.997 248.232 148.307C245.755 149.617 243.011 150.341 240.211 150.425C237.41 150.509 234.628 149.95 232.077 148.791C229.526 147.632 227.275 145.904 225.497 143.739C224.451 145.543 222.943 147.036 221.128 148.064C219.313 149.091 217.257 149.616 215.171 149.585C213.086 149.553 211.046 148.966 209.263 147.884C207.48 146.802 206.018 145.264 205.027 143.429C205.027 143.349 204.947 143.259 204.907 143.179C204.299 145.024 203.164 146.651 201.642 147.858C200.12 149.065 198.277 149.8 196.342 149.971C194.407 150.142 192.464 149.743 190.753 148.822C189.042 147.901 187.639 146.499 186.717 144.789C186.542 144.464 186.385 144.13 186.247 143.789C184.726 146.117 182.644 148.025 180.192 149.337C177.739 150.648 174.996 151.321 172.215 151.293C169.434 151.266 166.705 150.538 164.28 149.177C161.854 147.817 159.811 145.867 158.337 143.509C157.439 144.91 156.232 146.086 154.809 146.949C153.386 147.811 151.785 148.337 150.127 148.484C148.47 148.632 146.801 148.398 145.247 147.801C143.694 147.204 142.298 146.259 141.167 145.039C140.777 145.289 140.387 145.539 139.977 145.759C137.016 147.364 133.626 148.003 130.283 147.585C126.94 147.167 123.812 145.714 121.337 143.429C115.107 145.359 107.887 144.429 103.217 141.229C100.075 141.755 96.8719 141.799 93.717 141.359C92.9215 142.292 91.9101 143.018 90.7708 143.472C89.6314 143.926 88.3984 144.096 87.1787 143.966C85.959 143.836 84.7894 143.41 83.7715 142.726C82.7535 142.041 81.9179 141.119 81.337 140.039V139.939C76.947 139.699 72.887 138.839 70.337 137.469C63.577 137.729 56.467 137.109 53.017 135.859C48.667 134.309 51.597 132.389 59.457 131.549Z" fill="url(#paint3_linear)"/>
<defs>
<linearGradient id="paint0_linear" x1="128" y1="76.5" x2="129.518" y2="127.515" gradientUnits="userSpaceOnUse">
<stop stop-color="white"/>
<stop offset="0.609375" stop-color="#3C55B3" stop-opacity="0.4"/>
<stop offset="0.76" stop-color="#3C55B3"/>
<stop offset="0.91" stop-color="#3C55B3"/>
<stop offset="1" stop-color="#3C55B3"/>
</linearGradient>
<linearGradient id="paint1_linear" x1="380.377" y1="75.0532" x2="370.701" y2="117.211" gradientUnits="userSpaceOnUse">
<stop stop-color="white"/>
<stop offset="0.609375" stop-color="#3C55B3" stop-opacity="0.4"/>
<stop offset="0.76" stop-color="#3C55B3"/>
<stop offset="0.91" stop-color="#3C55B3"/>
<stop offset="1" stop-color="#3C55B3"/>
</linearGradient>
<linearGradient id="paint2_linear" x1="359.415" y1="102.024" x2="355.74" y2="147.064" gradientUnits="userSpaceOnUse">
<stop stop-color="white"/>
<stop offset="0.609375" stop-color="#3C55B3" stop-opacity="0.4"/>
<stop offset="0.76" stop-color="#3C55B3"/>
<stop offset="0.91" stop-color="#3C55B3"/>
<stop offset="1" stop-color="#3C55B3"/>
</linearGradient>
<linearGradient id="paint3_linear" x1="189.837" y1="86" x2="189" y2="151" gradientUnits="userSpaceOnUse">
<stop stop-color="#D1DBFF"/>
<stop offset="0.609375" stop-color="#3C55B3" stop-opacity="0.4"/>
<stop offset="0.76" stop-color="#3C55B3"/>
<stop offset="0.91" stop-color="#3C55B3"/>
<stop offset="1" stop-color="#3C55B3"/>
</linearGradient>
</defs>
</svg>
